Horodateur;No participant;What is your gender?;What is your age?;Which hand is your dominant hand?;Do you have a cell phone?;If you have a cell phone, does it have touch screen?;If you have a cell phone with touch screen, what is its width?;If you have a cell phone with touch screen, what is its length?;How frequently do you use your cell phone with one hand?;How frequently do you use your cell phone with your right hand?;How frequently do you use your cell phone with your left hand?;What is the length of your index finger?;What is your hand breadth?;What is your hand length?;What is your hand circumference?;What is the length of your index finger?;What is your hand breadth?;What is your hand length?;What is your hand circumference?;Mental Demand : How mentally demanding was the task?;Physical Demand : How physically demanding was the task?;Temporal Demand : How hurried or rushed was the pace of  the task?;Performance: How successful were you in accomplishing what you were asked to do?;Effort: How hard did you have to work to accomplish your level of performance?;Frustration Level : How insecure, discouraged, irritated, stressed, and annoyed were you?;Mental Demand : How mentally demanding was the task?;Physical Demand : How physically demanding was the task?;Temporal Demand : How hurried or rushed was the pace of  the task?;Performance: How successful were you in accomplishing what you were asked to do?;Effort: How hard did you have to work to accomplish your level of performance?;Frustration Level : How insecure, discouraged, irritated, stressed, and annoyed were you?;Do you have some remarks for this task?;Mental Demand : How mentally demanding was the task?;Physical Demand : How physically demanding was the task?;Temporal Demand : How hurried or rushed was the pace of  the task?;Performance: How successful were you in accomplishing what you were asked to do?;Effort: How hard did you have to work to accomplish your level of performance?;Frustration Level : How insecure, discouraged, irritated, stressed, and annoyed were you?;Mental Demand : How mentally demanding was the task?;Physical Demand : How physically demanding was the task?;Temporal Demand : How hurried or rushed was the pace of  the task?;Performance: How successful were you in accomplishing what you were asked to do?;Effort: How hard did you have to work to accomplish your level of performance?;Frustration Level : How insecure, discouraged, irritated, stressed, and annoyed were you?;Do you have some remarks for this task?;Mental Demand : How mentally demanding was the task?;Physical Demand : How physically demanding was the task?;Temporal Demand : How hurried or rushed was the pace of  the task?;Performance: How successful were you in accomplishing what you were asked to do?;Effort: How hard did you have to work to accomplish your level of performance?;Frustration Level : How insecure, discouraged, irritated, stressed, and annoyed were you?;Mental Demand : How mentally demanding was the task?;Physical Demand : How physically demanding was the task?;Temporal Demand : How hurried or rushed was the pace of  the task?;Performance: How successful were you in accomplishing what you were asked to do?;Effort: How hard did you have to work to accomplish your level of performance?;Frustration Level : How insecure, discouraged, irritated, stressed, and annoyed were you?;Do you have some remarks for this task?;Do you have some remarks for the experimentation?;On which day did you take part in our experiment?;At what time did you begin our experiment ?;Please indicate your preferences in the use of hands in the following activities or objects [Writing];Please indicate your preferences in the use of hands in the following activities or objects [Drawing];Please indicate your preferences in the use of hands in the following activities or objects [Throwing];Please indicate your preferences in the use of hands in the following activities or objects [Scissors];Please indicate your preferences in the use of hands in the following activities or objects [Toothbrush];Please indicate your preferences in the use of hands in the following activities or objects [Knife (without fork)];Please indicate your preferences in the use of hands in the following activities or objects [Spoon];Please indicate your preferences in the use of hands in the following activities or objects [Broom (upper hand)];Please indicate your preferences in the use of hands in the following activities or objects [Striking Match (match)];Please indicate your preferences in the use of hands in the following activities or objects [Opening box (lid)]
2020/06/29 3:00:49 PM UTC+2;0;Female;24;Right;Yes;Yes;75;160;Sometimes;Sometimes;Seldom;89;76;173;170;91;72;170;174;1;5;5;5;5;5;9;13;4;9;9;9;;17;13;5;13;13;13;17;17;5;13;13;13;;13;13;5;13;13;13;9;13;5;13;9;13;;;2020-06-15;02:00;0;0;1;1;0;2;0;1;0;2
2020/06/29 3:11:38 PM UTC+2;1;Male;28;Right;Yes;Yes;65;110;Always;Always;Never;104;80;186;195;101;82;182;193;5;9;5;9;9;5;5;13;5;13;13;9;;5;13;5;13;13;9;9;17;5;17;17;17;;5;9;5;5;9;9;5;9;5;5;9;9;;;2020-06-17;10:30;0;0;0;0;0;0;0;1;0;1
2020/06/29 3:20:20 PM UTC+2;2;Male;30;Right;Yes;Yes;72;155;Often;Often;Seldom;102;82;185;195;100;80;187;194;3;4;4;6;5;6;2;3;3;6;4;4;;7;9;13;16;16;16;5;9;9;11;14;14;;4;11;6;8;10;10;4;9;7;6;8;9;;;2020-06-19;11:00;0;0;0;0;0;0;0;0;0;0
2020/06/29 3:30:13 PM UTC+2;3;Male;27;Right;Yes;Yes;74;145;Often;Sometimes;Always;105;80;185;195;104;80;185;187;11;11;13;2;10;7;10;9;12;1;6;9;;17;19;15;6;12;12;17;15;14;4;13;11;;16;17;15;4;14;11;16;14;15;4;16;11;;;2020-06-19;14:00;0;0;0;0;0;0;0;0;0;1
2020/06/29 3:42:01 PM UTC+2;4;Male;24;Right;Yes;Yes;71;140;Often;Often;Seldom;97;85;178;206;97;84;178;205;3;3;16;7;4;4;2;3;20;2;3;2;;13;8;15;10;13;13;16;7;11;8;12;2;;20;12;10;12;19;14;16;21;14;2;18;6;;;2020-06-23;14:00;0;0;0;0;0;0;0;1;0;0
2020/06/29 3:52:13 PM UTC+2;5;Female;23;Right;Yes;Yes;75;151;Sometimes;Often;Sometimes;90;68;164;160;88;65;163;159;14;11;11;14;9;7;11;11;9;7;11;10;;11;7;11;11;8;3;11;15;11;11;13;6;;11;6;3;11;11;1;14;15;11;11;11;6;;;2020-06-20;10:00;0;0;0;0;0;0;0;0;0;0
2020/06/29 4:20:25 PM UTC+2;6;Female;23;Right;Yes;Yes;78;159;Often;Often;Seldom;91;71;170;167;93;70;164;169;18;17;14;11;11;3;18;18;16;11;11;3;;19;20;13;16;15;7;18;18;11;15;7;7;;20;20;20;18;18;6;17;17;12;9;13;6;;;2020-06-20;11:45;0;0;0;0;0;0;0;0;0;0
2020/06/29 4:54:02 PM UTC+2;7;Female;25;Right;Yes;Yes;77;167;Often;Often;Seldom;96;80;170;190;97;79;175;183;8;8;8;6;8;8;14;14;11;11;13;13;;18;18;18;8;18;18;20;18;17;13;19;19;;17;19;15;6;18;17;19;20;18;11;20;19;;;2020-06-21;14:00;0;0;0;0;0;0;0;0;0;0
2020/06/29 6:56:07 PM UTC+2;8;Female;24;Right;Yes;Yes;74;160;Sometimes;Often;Sometimes;90;74;172;180;87;73;172;175;15;16;13;17;14;11;12;13;12;13;13;10;;11;12;11;13;13;7;10;12;11;11;11;8;;11;12;11;11;12;11;13;15;12;16;14;13;;;2020-06-21;16:00;0;0;0;0;0;0;0;0;0;0
2020/06/29 8:22:48 PM UTC+2;9;Female;26;Right;Yes;Yes;74;150;Always;Always;Seldom;97;74;178;189;100;72;175;177;5;6;8;4;6;5;8;6;10;6;7;11;;19;15;10;14;16;13;12;10;11;7;10;8;;21;18;14;9;20;14;20;14;13;6;17;14;;;2022-06-22;09:00;0;0;0;0;0;2;0;0;0;0
2020/06/29 8:47:06 PM UTC+2;10;Male;23;Right;Yes;Yes;76;160;Always;Often;Sometimes;98;82;180;198;99;81;180;195;11;16;14;8;19;15;11;10;11;6;14;11;;17;19;21;17;21;21;21;21;21;21;21;21;;10;14;11;4;17;1;11;16;10;2;15;11;;;2020-06-22;16:00;0;0;1;1;0;0;2;1;1;1
2020/06/29 9:22:01 PM UTC+2;11;Male;26;Right;Yes;Yes;78;160;Often;Often;Sometimes;100;84;175;200;100;81;181;198;19;19;19;14;13;9;18;18;18;17;15;8;;19;20;19;10;19;8;19;20;19;8;20;9;;19;19;19;10;18;9;19;20;19;11;19;10;;;2020-06-23;09:50;0;0;0;0;0;0;0;0;0;0