id;Participant;State;TaskType;HandUsed;Direction;SubDirection;Amplitude/Length;Width;StartTime;StartPosition;EndTime;Duration;ErrorType;EndPosition;Remark
1;0;Successful;TA;right;Vertical;D;288;96;1591342629896;(710.0,345.0);1591342630632;736;;(648.0,567.0);
2;0;Successful;TA;right;Vertical;U;288;96;1591342630916;(658.0,622.0);1591342631785;869;;(652.0,300.0);
3;0;Successful;TA;right;Vertical;D;288;96;1591342632103;(700.0,344.0);1591342632771;668;;(644.0,579.0);
4;0;Successful;TA;right;Vertical;U;288;96;1591342632989;(647.0,629.0);1591342633822;833;;(608.0,305.0);
5;0;Successful;TA;right;Vertical;D;288;96;1591342634172;(677.0,368.0);1591342634800;628;;(628.0,622.0);
6;0;Successful;TA;right;Vertical;U;288;96;1591342635078;(637.0,624.0);1591342636010;932;;(639.0,311.0);
7;0;Successful;TA;right;Vertical;D;288;96;1591342636248;(670.0,354.0);1591342636864;616;;(623.0,564.0);
8;0;Successful;TA;right;Vertical;U;288;96;1591342637098;(632.0,614.0);1591342637785;687;;(594.0,315.0);
9;0;Successful;TA;right;Vertical;D;288;96;1591342638120;(653.0,378.0);1591342638688;568;;(620.0,622.0);
10;0;Successful;TA;right;Vertical;U;288;96;1591342638905;(609.0,645.0);1591342639638;733;;(620.0,344.0);
11;0;Failed;TA;right;Horizontal;R;288;24;1591342646270;(680.0,708.0);1591342647103;833;;(413.0,726.0);
12;0;Successful;TA;right;Horizontal;L;288;24;1591342647411;(426.0,695.0);1591342648327;916;;(687.0,709.0);
13;0;Successful;TA;right;Horizontal;R;288;24;1591342648636;(659.0,706.0);1591342650183;1547;;(397.0,709.0);
14;0;Successful;TA;right;Horizontal;L;288;24;1591342650413;(436.0,682.0);1591342651519;1106;;(684.0,704.0);
15;0;Successful;TA;right;Horizontal;R;288;24;1591342651752;(634.0,699.0);1591342652704;952;;(404.0,706.0);
16;0;Successful;TA;right;Horizontal;L;288;24;1591342652954;(441.0,692.0);1591342653823;869;;(682.0,696.0);
17;0;Failed;TA;right;Horizontal;R;288;24;1591342654063;(552.0,661.0);1591342654932;869;;(410.0,709.0);
18;0;Successful;TA;right;Horizontal;L;288;24;1591342655195;(443.0,690.0);1591342656565;1370;;(686.0,717.0);
19;0;Successful;TA;right;Horizontal;R;288;24;1591342656833;(565.0,663.0);1591342657716;883;;(399.0,644.0);
20;0;Successful;TA;right;Horizontal;L;288;24;1591342657998;(402.0,638.0);1591342659486;1488;;(687.0,674.0);
21;0;Successful;TA;right;Horizontal;L;288;48;1591342665134;(431.0,607.0);1591342666040;906;;(692.0,655.0);
22;0;Successful;TA;right;Horizontal;R;288;48;1591342666221;(545.0,600.0);1591342666935;714;;(404.0,607.0);
23;0;Successful;TA;right;Horizontal;L;288;48;1591342667108;(432.0,597.0);1591342667926;818;;(691.0,654.0);
24;0;Successful;TA;right;Horizontal;R;288;48;1591342668093;(622.0,622.0);1591342668963;870;;(412.0,616.0);
25;0;Successful;TA;right;Horizontal;L;288;48;1591342669192;(435.0,594.0);1591342670164;972;;(691.0,662.0);
26;0;Successful;TA;right;Horizontal;R;288;48;1591342670359;(711.0,654.0);1591342671802;1443;;(386.0,657.0);
27;0;Failed;TA;right;Horizontal;L;288;48;1591342672038;(426.0,624.0);1591342673204;1166;;(652.0,645.0);
28;0;Successful;TA;right;Horizontal;R;288;48;1591342673403;(587.0,615.0);1591342674571;1168;;(404.0,635.0);
29;0;Successful;TA;right;Horizontal;L;288;48;1591342674897;(424.0,618.0);1591342676012;1115;;(669.0,656.0);
30;0;Successful;TA;right;Horizontal;R;288;48;1591342676277;(641.0,653.0);1591342677448;1171;;(388.0,646.0);
31;0;Successful;TA;right;Horizontal;L;144;96;1591342681288;(487.0,630.0);1591342681973;685;;(606.0,645.0);
32;0;Successful;TA;right;Horizontal;R;144;96;1591342682163;(602.0,650.0);1591342682958;795;;(482.0,649.0);
33;0;Successful;TA;right;Horizontal;L;144;96;1591342683267;(480.0,632.0);1591342683932;665;;(593.0,628.0);
34;0;Successful;TA;right;Horizontal;R;144;96;1591342684198;(608.0,637.0);1591342684887;689;;(476.0,632.0);
35;0;Successful;TA;right;Horizontal;L;144;96;1591342685138;(488.0,621.0);1591342685854;716;;(622.0,647.0);
36;0;Successful;TA;right;Horizontal;R;144;96;1591342686085;(660.0,656.0);1591342686922;837;;(450.0,645.0);
37;0;Successful;TA;right;Horizontal;L;144;96;1591342687145;(474.0,623.0);1591342687907;762;;(611.0,642.0);
38;0;Successful;TA;right;Horizontal;R;144;96;1591342688130;(621.0,641.0);1591342688726;596;;(466.0,629.0);
39;0;Successful;TA;right;Horizontal;L;144;96;1591342689012;(507.0,615.0);1591342689625;613;;(608.0,642.0);
40;0;Successful;TA;right;Horizontal;R;144;96;1591342689806;(630.0,639.0);1591342690461;655;;(495.0,648.0);
41;0;Successful;TA;right;Vertical;D;576;48;1591342699218;(768.0,159.0);1591342700557;1339;;(757.0,739.0);
42;0;Failed;TA;right;Vertical;U;576;48;1591342700784;(749.0,749.0);1591342702045;1261;;(696.0,124.0);
43;0;Successful;TA;right;Vertical;D;576;48;1591342702311;(771.0,180.0);1591342703583;1272;;(748.0,750.0);
44;0;Successful;TA;right;Vertical;U;576;48;1591342703960;(730.0,734.0);1591342705302;1342;;(687.0,140.0);
45;0;Successful;TA;right;Vertical;D;576;48;1591342705750;(766.0,199.0);1591342707236;1486;;(773.0,737.0);
46;0;Successful;TA;right;Vertical;U;576;48;1591342707571;(761.0,723.0);1591342709095;1524;;(696.0,132.0);
47;0;Successful;TA;right;Vertical;D;576;48;1591342709563;(768.0,228.0);1591342710868;1305;;(745.0,713.0);
48;0;Successful;TA;right;Vertical;U;576;48;1591342711199;(750.0,749.0);1591342712554;1355;;(688.0,146.0);
49;0;Successful;TA;right;Vertical;D;576;48;1591342712972;(733.0,197.0);1591342714941;1969;;(758.0,720.0);
50;0;Successful;TA;right;Vertical;U;576;48;1591342715154;(757.0,737.0);1591342716580;1426;;(709.0,146.0);
51;0;Successful;TA;right;Horizontal;L;576;48;1591342725154;(300.0,275.0);1591342726435;1281;;(827.0,503.0);
52;0;Successful;TA;right;Horizontal;R;576;48;1591342726675;(806.0,500.0);1591342728177;1502;;(263.0,239.0);
53;0;Successful;TA;right;Horizontal;L;576;48;1591342728491;(306.0,250.0);1591342729931;1440;;(812.0,495.0);
54;0;Successful;TA;right;Horizontal;R;576;48;1591342730170;(812.0,491.0);1591342731451;1281;;(269.0,257.0);
55;0;Successful;TA;right;Horizontal;L;576;48;1591342731771;(365.0,297.0);1591342732819;1048;;(825.0,497.0);
56;0;Failed;TA;right;Horizontal;R;576;48;1591342733049;(805.0,468.0);1591342734225;1176;;(283.0,298.0);
57;0;Successful;TA;right;Horizontal;L;576;48;1591342734558;(335.0,311.0);1591342735828;1270;;(826.0,506.0);
58;0;Successful;TA;right;Horizontal;R;576;48;1591342736095;(809.0,493.0);1591342737564;1469;;(265.0,254.0);
59;0;Successful;TA;right;Horizontal;L;576;48;1591342737936;(308.0,273.0);1591342739073;1137;;(823.0,524.0);
60;0;Successful;TA;right;Horizontal;R;576;48;1591342739320;(797.0,519.0);1591342740639;1319;;(260.0,272.0);
61;0;Successful;TA;right;Horizontal;L;576;96;1591342745670;(370.0,308.0);1591342746503;833;;(820.0,520.0);
62;0;Successful;TA;right;Horizontal;R;576;96;1591342746719;(776.0,491.0);1591342747825;1106;;(283.0,271.0);
63;0;Successful;TA;right;Horizontal;L;576;96;1591342748053;(393.0,312.0);1591342748943;890;;(823.0,506.0);
64;0;Successful;TA;right;Horizontal;R;576;96;1591342749176;(832.0,508.0);1591342750295;1119;;(279.0,253.0);
65;0;Successful;TA;right;Horizontal;L;576;96;1591342750567;(421.0,307.0);1591342751452;885;;(798.0,481.0);
66;0;Successful;TA;right;Horizontal;R;576;96;1591342751705;(819.0,482.0);1591342752858;1153;;(279.0,238.0);
67;0;Successful;TA;right;Horizontal;L;576;96;1591342753092;(289.0,237.0);1591342754523;1431;;(839.0,445.0);
68;0;Successful;TA;right;Horizontal;R;576;96;1591342754802;(767.0,387.0);1591342756159;1357;;(245.0,221.0);
69;0;Successful;TA;right;Horizontal;L;576;96;1591342756754;(351.0,328.0);1591342758477;1723;;(792.0,469.0);
70;0;Successful;TA;right;Horizontal;R;576;96;1591342758784;(774.0,480.0);1591342760041;1257;;(262.0,282.0);
71;0;Successful;TA;right;Vertical;U;288;48;1591342766239;(581.0,612.0);1591342767189;950;;(596.0,285.0);
72;0;Failed;TA;right;Vertical;D;288;48;1591342767458;(598.0,314.0);1591342768359;901;;(579.0,612.0);
73;0;Successful;TA;right;Vertical;U;288;48;1591342768792;(580.0,608.0);1591342769682;890;;(606.0,285.0);
74;0;Successful;TA;right;Vertical;D;288;48;1591342769997;(595.0,315.0);1591342770832;835;;(584.0,599.0);
75;0;Successful;TA;right;Vertical;U;288;48;1591342771134;(577.0,594.0);1591342771971;837;;(594.0,303.0);
76;0;Successful;TA;right;Vertical;D;288;48;1591342772286;(569.0,313.0);1591342773208;922;;(584.0,577.0);
77;0;Successful;TA;right;Vertical;U;288;48;1591342773485;(591.0,587.0);1591342774556;1071;;(633.0,306.0);
78;0;Successful;TA;right;Vertical;D;288;48;1591342774807;(609.0,305.0);1591342775812;1005;;(594.0,580.0);
79;0;Successful;TA;right;Vertical;U;288;48;1591342776078;(588.0,607.0);1591342777066;988;;(613.0,298.0);
80;0;Successful;TA;right;Vertical;D;288;48;1591342777368;(614.0,290.0);1591342778504;1136;;(567.0,589.0);
81;0;Successful;TA;right;Horizontal;L;144;24;1591342784032;(486.0,281.0);1591342785754;1722;;(607.0,325.0);
82;0;Successful;TA;right;Horizontal;R;144;24;1591342786031;(591.0,315.0);1591342786807;776;;(465.0,272.0);
83;0;Successful;TA;right;Horizontal;L;144;24;1591342787051;(469.0,267.0);1591342788008;957;;(615.0,320.0);
84;0;Successful;TA;right;Horizontal;R;144;24;1591342788230;(602.0,316.0);1591342789679;1449;;(465.0,279.0);
85;0;Successful;TA;right;Horizontal;L;144;24;1591342789964;(477.0,273.0);1591342791253;1289;;(614.0,320.0);
86;0;Successful;TA;right;Horizontal;R;144;24;1591342791521;(591.0,311.0);1591342793723;2202;;(479.0,281.0);
87;0;Successful;TA;right;Horizontal;L;144;24;1591342794088;(478.0,270.0);1591342795144;1056;;(618.0,325.0);
88;0;Successful;TA;right;Horizontal;R;144;24;1591342795371;(611.0,323.0);1591342796345;974;;(467.0,278.0);
89;0;Successful;TA;right;Horizontal;L;144;24;1591342796717;(484.0,280.0);1591342798724;2007;;(614.0,336.0);
90;0;Successful;TA;right;Horizontal;R;144;24;1591342799034;(618.0,334.0);1591342800222;1188;;(466.0,299.0);
91;0;Successful;TA;right;Horizontal;L;144;48;1591342804413;(493.0,291.0);1591342805166;753;;(618.0,332.0);
92;0;Successful;TA;right;Horizontal;R;144;48;1591342805435;(601.0,327.0);1591342806236;801;;(477.0,294.0);
93;0;Successful;TA;right;Horizontal;L;144;48;1591342806525;(497.0,295.0);1591342807265;740;;(612.0,339.0);
94;0;Successful;TA;right;Horizontal;R;144;48;1591342807585;(567.0,324.0);1591342808176;591;;(466.0,286.0);
95;0;Successful;TA;right;Horizontal;L;144;48;1591342808435;(483.0,290.0);1591342809409;974;;(613.0,337.0);
96;0;Successful;TA;right;Horizontal;R;144;48;1591342809666;(664.0,359.0);1591342810884;1218;;(458.0,304.0);
97;0;Successful;TA;right;Horizontal;L;144;48;1591342811212;(487.0,297.0);1591342812483;1271;;(611.0,335.0);
98;0;Successful;TA;right;Horizontal;R;144;48;1591342812806;(635.0,351.0);1591342813707;901;;(467.0,306.0);
99;0;Successful;TA;right;Horizontal;L;144;48;1591342813950;(477.0,296.0);1591342814742;792;;(614.0,353.0);
100;0;Successful;TA;right;Horizontal;R;144;48;1591342815005;(630.0,354.0);1591342815697;692;;(467.0,302.0);
101;0;Successful;TA;right;Vertical;U;576;96;1591342821790;(581.0,660.0);1591342822730;940;;(522.0,179.0);
102;0;Successful;TA;right;Vertical;D;576;96;1591342823029;(582.0,243.0);1591342823966;937;;(570.0,723.0);
103;0;Successful;TA;right;Vertical;U;576;96;1591342824211;(577.0,590.0);1591342824968;757;;(562.0,184.0);
104;0;Successful;TA;right;Vertical;D;576;96;1591342825216;(568.0,249.0);1591342826055;839;;(576.0,725.0);
105;0;Successful;TA;right;Vertical;U;576;96;1591342826326;(576.0,663.0);1591342827325;999;;(523.0,170.0);
106;0;Successful;TA;right;Vertical;D;576;96;1591342827611;(585.0,249.0);1591342828577;966;;(572.0,713.0);
107;0;Successful;TA;right;Vertical;U;576;96;1591342828829;(558.0,600.0);1591342829747;918;;(546.0,158.0);
108;0;Successful;TA;right;Vertical;D;576;96;1591342830012;(568.0,179.0);1591342830970;958;;(571.0,733.0);
109;0;Successful;TA;right;Vertical;U;576;96;1591342831262;(579.0,665.0);1591342832556;1294;;(539.0,154.0);
110;0;Failed;TA;right;Vertical;D;576;96;1591342832886;(586.0,241.0);1591342833826;940;;(555.0,674.0);
111;0;Successful;TA;right;Horizontal;L;576;24;1591342842061;(293.0,247.0);1591342843535;1474;;(829.0,491.0);
112;0;Successful;TA;right;Horizontal;R;576;24;1591342843835;(766.0,450.0);1591342845737;1902;;(262.0,245.0);
113;0;Successful;TA;right;Horizontal;L;576;24;1591342846090;(297.0,269.0);1591342848282;2192;;(836.0,501.0);
114;0;Successful;TA;right;Horizontal;R;576;24;1591342848605;(770.0,445.0);1591342850567;1962;;(264.0,282.0);
115;0;Failed;TA;right;Horizontal;L;576;24;1591342850839;(307.0,282.0);1591342852306;1467;;(792.0,463.0);
116;0;Successful;TA;right;Horizontal;R;576;24;1591342852737;(732.0,455.0);1591342854024;1287;;(260.0,296.0);
117;0;Failed;TA;right;Horizontal;L;576;24;1591342854348;(301.0,312.0);1591342856678;2330;;(809.0,479.0);
118;0;Successful;TA;right;Horizontal;R;576;24;1591342857048;(749.0,470.0);1591342858598;1550;;(248.0,302.0);
119;0;Failed;TA;right;Horizontal;L;576;24;1591342859051;(338.0,332.0);1591342860741;1690;;(808.0,516.0);
120;0;Failed;TA;right;Horizontal;R;576;24;1591342861154;(778.0,488.0);1591342863430;2276;;(271.0,385.0);
121;0;Successful;TA;right;Vertical;U;144;48;1591342870568;(529.0,518.0);1591342871936;1368;;(572.0,361.0);
122;0;Successful;TA;right;Vertical;D;144;48;1591342872369;(587.0,377.0);1591342873121;752;;(547.0,489.0);
123;0;Successful;TA;right;Vertical;U;144;48;1591342873556;(536.0,498.0);1591342874542;986;;(569.0,368.0);
124;0;Successful;TA;right;Vertical;D;144;48;1591342874995;(588.0,388.0);1591342875712;717;;(536.0,512.0);
125;0;Successful;TA;right;Vertical;U;144;48;1591342876191;(544.0,529.0);1591342877049;858;;(571.0,360.0);
126;0;Successful;TA;right;Vertical;D;144;48;1591342877468;(579.0,382.0);1591342878368;900;;(554.0,518.0);
127;0;Successful;TA;right;Vertical;U;144;48;1591342878771;(546.0,532.0);1591342879587;816;;(581.0,348.0);
128;0;Successful;TA;right;Vertical;D;144;48;1591342880007;(600.0,384.0);1591342880660;653;;(575.0,494.0);
129;0;Successful;TA;right;Vertical;U;144;48;1591342881048;(596.0,479.0);1591342881733;685;;(617.0,355.0);
130;0;Successful;TA;right;Vertical;D;144;48;1591342882105;(617.0,396.0);1591342883398;1293;;(581.0,512.0);
131;0;Failed;TA;right;Vertical;U;288;24;1591342890632;(512.0,603.0);1591342891968;1336;;(480.0,281.0);
132;0;Successful;TA;right;Vertical;D;288;24;1591342892402;(534.0,324.0);1591342894526;2124;;(495.0,586.0);
133;0;Successful;TA;right;Vertical;U;288;24;1591342894986;(511.0,587.0);1591342896587;1601;;(546.0,296.0);
134;0;Successful;TA;right;Vertical;D;288;24;1591342897034;(574.0,348.0);1591342899038;2004;;(542.0,580.0);
135;0;Successful;TA;right;Vertical;U;288;24;1591342899622;(550.0,582.0);1591342901392;1770;;(571.0,285.0);
136;0;Successful;TA;right;Vertical;D;288;24;1591342901763;(598.0,345.0);1591342903749;1986;;(567.0,579.0);
137;0;Successful;TA;right;Vertical;U;288;24;1591342904181;(560.0,577.0);1591342905305;1124;;(495.0,287.0);
138;0;Successful;TA;right;Vertical;D;288;24;1591342905722;(549.0,345.0);1591342906658;936;;(530.0,583.0);
139;0;Successful;TA;right;Vertical;U;288;24;1591342907124;(527.0,589.0);1591342908845;1721;;(509.0,300.0);
140;0;Failed;TA;right;Vertical;D;288;24;1591342909244;(531.0,340.0);1591342910765;1521;;(511.0,569.0);
141;0;Successful;TA;right;Vertical;D;144;24;1591342917083;(611.0,380.0);1591342918153;1070;;(575.0,503.0);
142;0;Successful;TA;right;Vertical;U;144;24;1591342918492;(564.0,498.0);1591342919269;777;;(612.0,363.0);
143;0;Successful;TA;right;Vertical;D;144;24;1591342919612;(601.0,380.0);1591342920593;981;;(569.0,512.0);
144;0;Successful;TA;right;Vertical;U;144;24;1591342920892;(562.0,529.0);1591342921981;1089;;(565.0,367.0);
145;0;Successful;TA;right;Vertical;D;144;24;1591342922361;(539.0,352.0);1591342924817;2456;;(515.0,502.0);
146;0;Failed;TA;right;Vertical;U;144;24;1591342925203;(515.0,484.0);1591342927022;1819;;(562.0,350.0);
147;0;Successful;TA;right;Vertical;D;144;24;1591342927373;(572.0,365.0);1591342928445;1072;;(553.0,508.0);
148;0;Failed;TA;right;Vertical;U;144;24;1591342928829;(573.0,517.0);1591342929864;1035;;(587.0,353.0);
149;0;Failed;TA;right;Vertical;D;144;24;1591342930262;(592.0,398.0);1591342931058;796;;(580.0,497.0);
150;0;Successful;TA;right;Vertical;U;144;24;1591342931411;(589.0,514.0);1591342932521;1110;;(622.0,359.0);
151;0;Successful;TA;right;Vertical;D;144;96;1591342937798;(593.0,322.0);1591342938749;951;;(604.0,480.0);
152;0;Successful;TA;right;Vertical;U;144;96;1591342939111;(631.0,525.0);1591342939888;777;;(641.0,374.0);
153;0;Successful;TA;right;Vertical;D;144;96;1591342940266;(633.0,396.0);1591342940957;691;;(606.0,539.0);
154;0;Successful;TA;right;Vertical;U;144;96;1591342941353;(620.0,560.0);1591342942243;890;;(670.0,382.0);
155;0;Successful;TA;right;Vertical;D;144;96;1591342942579;(656.0,380.0);1591342943282;703;;(625.0,516.0);
156;0;Successful;TA;right;Vertical;U;144;96;1591342943596;(645.0,524.0);1591342944266;670;;(682.0,370.0);
157;0;Successful;TA;right;Vertical;D;144;96;1591342944633;(671.0,407.0);1591342945238;605;;(641.0,512.0);
158;0;Successful;TA;right;Vertical;U;144;96;1591342945596;(639.0,549.0);1591342946342;746;;(665.0,368.0);
159;0;Successful;TA;right;Vertical;D;144;96;1591342946734;(670.0,446.0);1591342947341;607;;(647.0,490.0);
160;0;Successful;TA;right;Vertical;U;144;96;1591342947658;(655.0,514.0);1591342948326;668;;(670.0,373.0);
161;0;Successful;TA;right;Horizontal;R;288;96;1591342953974;(683.0,363.0);1591342954797;823;;(398.0,271.0);
162;0;Successful;TA;right;Horizontal;L;288;96;1591342955165;(461.0,305.0);1591342955860;695;;(704.0,398.0);
163;0;Successful;TA;right;Horizontal;R;288;96;1591342956238;(702.0,386.0);1591342957036;798;;(397.0,267.0);
164;0;Successful;TA;right;Horizontal;L;288;96;1591342957404;(476.0,308.0);1591342958051;647;;(665.0,410.0);
165;0;Successful;TA;right;Horizontal;R;288;96;1591342958431;(632.0,396.0);1591342959232;801;;(426.0,327.0);
166;0;Successful;TA;right;Horizontal;L;288;96;1591342959626;(503.0,358.0);1591342960506;880;;(661.0,357.0);
167;0;Successful;TA;right;Horizontal;R;288;96;1591342961062;(676.0,406.0);1591342962161;1099;;(362.0,309.0);
168;0;Successful;TA;right;Horizontal;L;288;96;1591342962538;(510.0,365.0);1591342963698;1160;;(660.0,378.0);
169;0;Successful;TA;right;Horizontal;R;288;96;1591342964054;(686.0,380.0);1591342965004;950;;(389.0,272.0);
170;0;Successful;TA;right;Horizontal;L;288;96;1591342965376;(539.0,326.0);1591342965958;582;;(686.0,361.0);
171;0;Failed;TA;right;Vertical;U;576;24;1591342975629;(579.0,731.0);1591342977434;1805;;(525.0,101.0);
172;0;Successful;TA;right;Vertical;D;576;24;1591342977934;(649.0,236.0);1591342979421;1487;;(563.0,733.0);
173;0;Failed;TA;right;Vertical;U;576;24;1591342979785;(568.0,722.0);1591342982545;2760;;(559.0,106.0);
174;0;Failed;TA;right;Vertical;D;576;24;1591342983501;(559.0,433.0);1591342984584;1083;;(507.0,701.0);
175;0;Successful;TA;right;Vertical;U;576;24;1591342984928;(504.0,701.0);1591342988211;3283;;(497.0,158.0);
176;0;Failed;TA;right;Vertical;D;576;24;1591342988695;(611.0,405.0);1591342990899;2204;;(524.0,712.0);
177;0;Failed;TA;right;Vertical;U;576;24;1591342991285;(541.0,758.0);1591342994022;2737;;(505.0,101.0);
178;0;Failed;TA;right;Vertical;D;576;24;1591342994414;(531.0,132.0);1591342997549;3135;;(527.0,741.0);
179;0;Failed;TA;right;Vertical;U;576;24;1591342997925;(543.0,743.0);1591343000321;2396;;(579.0,136.0);
180;0;Successful;TA;right;Vertical;D;576;24;1591343000795;(608.0,234.0);1591343002546;1751;;(569.0,723.0);
181;0;Successful;TA;left;Vertical;U;288;96;1591343063332;(429.0,603.0);1591343064199;867;;(453.0,337.0);
182;0;Successful;TA;left;Vertical;D;288;96;1591343064593;(436.0,341.0);1591343065402;809;;(412.0,599.0);
183;0;Successful;TA;left;Vertical;U;288;96;1591343065757;(456.0,532.0);1591343066409;652;;(450.0,323.0);
184;0;Successful;TA;left;Vertical;D;288;96;1591343066818;(387.0,452.0);1591343067390;572;;(409.0,605.0);
185;0;Successful;TA;left;Vertical;U;288;96;1591343067777;(450.0,511.0);1591343068573;796;;(446.0,312.0);
186;0;Successful;TA;left;Vertical;D;288;96;1591343069012;(391.0,486.0);1591343069530;518;;(401.0,613.0);
187;0;Successful;TA;left;Vertical;U;288;96;1591343069918;(438.0,467.0);1591343070464;546;;(445.0,324.0);
188;0;Successful;TA;left;Vertical;D;288;96;1591343070849;(394.0,495.0);1591343071701;852;;(407.0,600.0);
189;0;Successful;TA;left;Vertical;U;288;96;1591343072091;(443.0,493.0);1591343073023;932;;(472.0,312.0);
190;0;Successful;TA;left;Vertical;D;288;96;1591343073471;(372.0,524.0);1591343073941;470;;(383.0,586.0);
191;0;Successful;TA;left;Horizontal;L;288;24;1591343082513;(381.0,549.0);1591343083932;1419;;(689.0,472.0);
192;0;Successful;TA;left;Horizontal;R;288;24;1591343084333;(598.0,489.0);1591343085233;900;;(391.0,550.0);
193;0;Failed;TA;left;Horizontal;L;288;24;1591343085649;(554.0,504.0);1591343086659;1010;;(667.0,485.0);
194;0;Successful;TA;left;Horizontal;R;288;24;1591343087106;(506.0,542.0);1591343088578;1472;;(390.0,588.0);
195;0;Successful;TA;left;Horizontal;L;288;24;1591343088944;(450.0,556.0);1591343090012;1068;;(692.0,497.0);
196;0;Failed;TA;left;Horizontal;R;288;24;1591343090410;(546.0,539.0);1591343092072;1662;;(411.0,584.0);
197;0;Successful;TA;left;Horizontal;L;288;24;1591343092477;(539.0,544.0);1591343093772;1295;;(683.0,514.0);
198;0;Successful;TA;left;Horizontal;R;288;24;1591343094214;(479.0,567.0);1591343095407;1193;;(395.0,602.0);
199;0;Successful;TA;left;Horizontal;L;288;24;1591343095822;(573.0,577.0);1591343097265;1443;;(688.0,562.0);
200;0;Successful;TA;left;Horizontal;R;288;24;1591343097693;(530.0,600.0);1591343099288;1595;;(405.0,639.0);
201;0;Successful;TA;left;Horizontal;R;288;48;1591343104836;(631.0,588.0);1591343105640;804;;(380.0,663.0);
202;0;Successful;TA;left;Horizontal;L;288;48;1591343106053;(489.0,618.0);1591343106889;836;;(685.0,587.0);
203;0;Successful;TA;left;Horizontal;R;288;48;1591343107300;(575.0,590.0);1591343108178;878;;(387.0,640.0);
204;0;Successful;TA;left;Horizontal;L;288;48;1591343108593;(500.0,599.0);1591343109414;821;;(687.0,579.0);
205;0;Successful;TA;left;Horizontal;R;288;48;1591343109839;(531.0,590.0);1591343110597;758;;(399.0,626.0);
206;0;Successful;TA;left;Horizontal;L;288;48;1591343111032;(472.0,617.0);1591343111967;935;;(692.0,596.0);
207;0;Successful;TA;left;Horizontal;R;288;48;1591343112374;(553.0,606.0);1591343113160;786;;(403.0,642.0);
208;0;Successful;TA;left;Horizontal;L;288;48;1591343113595;(438.0,629.0);1591343114578;983;;(686.0,581.0);
209;0;Successful;TA;left;Horizontal;R;288;48;1591343115006;(520.0,599.0);1591343115787;781;;(389.0,639.0);
210;0;Successful;TA;left;Horizontal;L;288;48;1591343116232;(552.0,591.0);1591343116945;713;;(683.0,578.0);
211;0;Successful;TA;left;Horizontal;R;144;96;1591343121493;(603.0,575.0);1591343122078;585;;(448.0,623.0);
212;0;Successful;TA;left;Horizontal;L;144;96;1591343122497;(542.0,599.0);1591343122962;465;;(588.0,588.0);
213;0;Successful;TA;left;Horizontal;R;144;96;1591343123430;(464.0,619.0);1591343123948;518;;(434.0,624.0);
214;0;Successful;TA;left;Horizontal;L;144;96;1591343124399;(548.0,594.0);1591343124854;455;;(578.0,591.0);
215;0;Failed;TA;left;Horizontal;R;144;96;1591343125281;(475.0,620.0);1591343125756;475;;(419.0,640.0);
216;0;Successful;TA;left;Horizontal;L;144;96;1591343126225;(445.0,642.0);1591343127025;800;;(596.0,599.0);
217;0;Successful;TA;left;Horizontal;R;144;96;1591343127484;(538.0,602.0);1591343128046;562;;(486.0,617.0);
218;0;Successful;TA;left;Horizontal;L;144;96;1591343128501;(535.0,605.0);1591343129017;516;;(598.0,585.0);
219;0;Successful;TA;left;Horizontal;R;144;96;1591343129483;(513.0,601.0);1591343129979;496;;(482.0,609.0);
220;0;Successful;TA;left;Horizontal;L;144;96;1591343130381;(598.0,609.0);1591343130869;488;;(636.0,607.0);
221;0;Successful;TA;left;Vertical;U;576;48;1591343139123;(516.0,756.0);1591343140660;1537;;(505.0,138.0);
222;0;Successful;TA;left;Vertical;D;576;48;1591343141069;(434.0,286.0);1591343141981;912;;(505.0,732.0);
223;0;Successful;TA;left;Vertical;U;576;48;1591343142393;(512.0,442.0);1591343143282;889;;(514.0,159.0);
224;0;Successful;TA;left;Vertical;D;576;48;1591343143686;(440.0,324.0);1591343144904;1218;;(531.0,729.0);
225;0;Successful;TA;left;Vertical;U;576;48;1591343145358;(516.0,457.0);1591343147017;1659;;(539.0,153.0);
226;0;Successful;TA;left;Vertical;D;576;48;1591343147512;(483.0,288.0);1591343149131;1619;;(516.0,723.0);
227;0;Successful;TA;left;Vertical;U;576;48;1591343149614;(481.0,368.0);1591343150968;1354;;(500.0,128.0);
228;0;Successful;TA;left;Vertical;D;576;48;1591343151383;(421.0,278.0);1591343152803;1420;;(514.0,730.0);
229;0;Successful;TA;left;Vertical;U;576;48;1591343153254;(515.0,540.0);1591343154195;941;;(498.0,158.0);
230;0;Successful;TA;left;Vertical;D;576;48;1591343154657;(432.0,463.0);1591343155614;957;;(513.0,743.0);
231;0;Successful;TA;left;Horizontal;L;576;48;1591343163299;(301.0,553.0);1591343164606;1307;;(808.0,407.0);
232;0;Successful;TA;left;Horizontal;R;576;48;1591343165084;(478.0,492.0);1591343165804;720;;(261.0,603.0);
233;0;Successful;TA;left;Horizontal;L;576;48;1591343166264;(692.0,467.0);1591343167288;1024;;(821.0,467.0);
234;0;Successful;TA;left;Horizontal;R;576;48;1591343167758;(501.0,535.0);1591343168843;1085;;(248.0,635.0);
235;0;Successful;TA;left;Horizontal;L;576;48;1591343169314;(545.0,536.0);1591343170431;1117;;(830.0,524.0);
236;0;Successful;TA;left;Horizontal;R;576;48;1591343170899;(375.0,627.0);1591343171569;670;;(261.0,652.0);
237;0;Successful;TA;left;Horizontal;L;576;48;1591343172032;(716.0,519.0);1591343172778;746;;(817.0,521.0);
238;0;Successful;TA;left;Horizontal;R;576;48;1591343173303;(278.0,654.0);1591343174207;904;;(245.0,653.0);
239;0;Successful;TA;left;Horizontal;L;576;48;1591343174712;(644.0,519.0);1591343175660;948;;(827.0,522.0);
240;0;Successful;TA;left;Horizontal;R;576;48;1591343176138;(548.0,557.0);1591343177299;1161;;(249.0,650.0);
241;0;Successful;TA;left;Horizontal;R;576;96;1591343183145;(733.0,533.0);1591343184137;992;;(259.0,679.0);
242;0;Successful;TA;left;Horizontal;L;576;96;1591343184630;(567.0,603.0);1591343185403;773;;(815.0,617.0);
243;0;Successful;TA;left;Horizontal;R;576;96;1591343185849;(453.0,651.0);1591343186493;644;;(271.0,673.0);
244;0;Successful;TA;left;Horizontal;L;576;96;1591343187000;(676.0,645.0);1591343187678;678;;(807.0,654.0);
245;0;Successful;TA;left;Horizontal;R;576;96;1591343188152;(576.0,584.0);1591343189218;1066;;(262.0,660.0);
246;0;Successful;TA;left;Horizontal;L;576;96;1591343189683;(656.0,616.0);1591343190335;652;;(808.0,589.0);
247;0;Successful;TA;left;Horizontal;R;576;96;1591343190804;(452.0,587.0);1591343192085;1281;;(279.0,622.0);
248;0;Successful;TA;left;Horizontal;L;576;96;1591343192524;(472.0,561.0);1591343193510;986;;(805.0,499.0);
249;0;Successful;TA;left;Horizontal;R;576;96;1591343194042;(417.0,547.0);1591343194862;820;;(271.0,605.0);
250;0;Successful;TA;left;Horizontal;L;576;96;1591343195344;(517.0,581.0);1591343196433;1089;;(799.0,611.0);
251;0;Successful;TA;left;Vertical;D;288;48;1591343201959;(436.0,335.0);1591343202712;753;;(444.0,581.0);
252;0;Successful;TA;left;Vertical;U;288;48;1591343203146;(480.0,372.0);1591343203682;536;;(492.0,284.0);
253;0;Successful;TA;left;Vertical;D;288;48;1591343204145;(490.0,548.0);1591343205325;1180;;(498.0,581.0);
254;0;Successful;TA;left;Vertical;U;288;48;1591343205852;(467.0,396.0);1591343206571;719;;(487.0,294.0);
255;0;Successful;TA;left;Vertical;D;288;48;1591343207009;(465.0,472.0);1591343207760;751;;(491.0,580.0);
256;0;Successful;TA;left;Vertical;U;288;48;1591343208197;(496.0,433.0);1591343208948;751;;(488.0,301.0);
257;0;Successful;TA;left;Vertical;D;288;48;1591343209425;(496.0,539.0);1591343210467;1042;;(515.0,568.0);
258;0;Successful;TA;left;Vertical;U;288;48;1591343210993;(545.0,344.0);1591343211569;576;;(549.0,283.0);
259;0;Successful;TA;left;Vertical;D;288;48;1591343212023;(503.0,491.0);1591343213056;1033;;(527.0,576.0);
260;0;Successful;TA;left;Vertical;U;288;48;1591343213506;(541.0,463.0);1591343214542;1036;;(517.0,305.0);
261;0;Successful;TA;left;Horizontal;R;144;24;1591343222079;(575.0,501.0);1591343223027;948;;(466.0,524.0);
262;0;Successful;TA;left;Horizontal;L;144;24;1591343223500;(474.0,534.0);1591343224635;1135;;(617.0,502.0);
263;0;Successful;TA;left;Horizontal;R;144;24;1591343225099;(535.0,516.0);1591343225705;606;;(471.0,526.0);
264;0;Successful;TA;left;Horizontal;L;144;24;1591343226159;(548.0,516.0);1591343226876;717;;(615.0,502.0);
265;0;Successful;TA;left;Horizontal;R;144;24;1591343227350;(518.0,528.0);1591343228110;760;;(464.0,541.0);
266;0;Successful;TA;left;Horizontal;L;144;24;1591343228602;(556.0,537.0);1591343229297;695;;(614.0,529.0);
267;0;Successful;TA;left;Horizontal;R;144;24;1591343229754;(488.0,546.0);1591343231269;1515;;(476.0,553.0);
268;0;Successful;TA;left;Horizontal;L;144;24;1591343231722;(486.0,555.0);1591343233075;1353;;(619.0,527.0);
269;0;Successful;TA;left;Horizontal;R;144;24;1591343233611;(502.0,540.0);1591343234307;696;;(476.0,545.0);
270;0;Successful;TA;left;Horizontal;L;144;24;1591343234823;(600.0,530.0);1591343235865;1042;;(606.0,528.0);
271;0;Successful;TA;left;Horizontal;R;144;48;1591343240514;(605.0,522.0);1591343241474;960;;(469.0,551.0);
272;0;Successful;TA;left;Horizontal;L;144;48;1591343241972;(521.0,556.0);1591343242748;776;;(605.0,541.0);
273;0;Successful;TA;left;Horizontal;R;144;48;1591343243237;(520.0,546.0);1591343243805;568;;(463.0,561.0);
274;0;Successful;TA;left;Horizontal;L;144;48;1591343244323;(556.0,564.0);1591343245404;1081;;(609.0,562.0);
275;0;Successful;TA;left;Horizontal;R;144;48;1591343245903;(540.0,561.0);1591343246726;823;;(482.0,564.0);
276;0;Successful;TA;left;Horizontal;L;144;48;1591343247262;(492.0,581.0);1591343248059;797;;(605.0,564.0);
277;0;Successful;TA;left;Horizontal;R;144;48;1591343248596;(493.0,569.0);1591343249701;1105;;(463.0,584.0);
278;0;Successful;TA;left;Horizontal;L;144;48;1591343250262;(558.0,553.0);1591343250787;525;;(631.0,537.0);
279;0;Successful;TA;left;Horizontal;R;144;48;1591343251326;(472.0,554.0);1591343252307;981;;(467.0,563.0);
280;0;Successful;TA;left;Horizontal;L;144;48;1591343252841;(521.0,562.0);1591343253693;852;;(623.0,546.0);
281;0;Successful;TA;left;Vertical;D;576;96;1591343260158;(466.0,233.0);1591343261310;1152;;(540.0,741.0);
282;0;Successful;TA;left;Vertical;U;576;96;1591343261781;(534.0,553.0);1591343262850;1069;;(537.0,163.0);
283;0;Successful;TA;left;Vertical;D;576;96;1591343263338;(493.0,547.0);1591343264067;729;;(541.0,734.0);
284;0;Successful;TA;left;Vertical;U;576;96;1591343264610;(501.0,384.0);1591343265604;994;;(598.0,167.0);
285;0;Successful;TA;left;Vertical;D;576;96;1591343266116;(462.0,452.0);1591343267167;1051;;(527.0,723.0);
286;0;Successful;TA;left;Vertical;U;576;96;1591343267704;(539.0,338.0);1591343268262;558;;(528.0,177.0);
287;0;Successful;TA;left;Vertical;D;576;96;1591343268736;(471.0,550.0);1591343269365;629;;(520.0,703.0);
288;0;Successful;TA;left;Vertical;U;576;96;1591343269842;(508.0,316.0);1591343270481;639;;(501.0,175.0);
289;0;Successful;TA;left;Vertical;D;576;96;1591343270999;(514.0,664.0);1591343271638;639;;(534.0,735.0);
290;0;Successful;TA;left;Vertical;U;576;96;1591343272168;(453.0,269.0);1591343272975;807;;(526.0,170.0);
291;0;Successful;TA;left;Horizontal;R;576;24;1591343282749;(769.0,579.0);1591343284183;1434;;(255.0,622.0);
292;0;Successful;TA;left;Horizontal;L;576;24;1591343284675;(638.0,562.0);1591343285886;1211;;(832.0,601.0);
293;0;Successful;TA;left;Horizontal;R;576;24;1591343286437;(468.0,589.0);1591343288067;1630;;(249.0,621.0);
294;0;Successful;TA;left;Horizontal;L;576;24;1591343288640;(600.0,545.0);1591343289765;1125;;(828.0,566.0);
295;0;Failed;TA;left;Horizontal;R;576;24;1591343290262;(441.0,597.0);1591343291252;990;;(236.0,630.0);
296;0;Successful;TA;left;Horizontal;L;576;24;1591343291748;(605.0,569.0);1591343292858;1110;;(828.0,595.0);
297;0;Successful;TA;left;Horizontal;R;576;24;1591343293404;(434.0,594.0);1591343294457;1053;;(249.0,610.0);
298;0;Successful;TA;left;Horizontal;L;576;24;1591343295013;(481.0,588.0);1591343296399;1386;;(835.0,590.0);
299;0;Successful;TA;left;Horizontal;R;576;24;1591343296935;(549.0,580.0);1591343297953;1018;;(253.0,621.0);
300;0;Successful;TA;left;Horizontal;L;576;24;1591343298528;(656.0,577.0);1591343299994;1466;;(831.0,659.0);
301;0;Successful;TA;left;Vertical;D;144;48;1591343305788;(477.0,426.0);1591343306776;988;;(482.0,506.0);
302;0;Successful;TA;left;Vertical;U;144;48;1591343307278;(535.0,483.0);1591343308312;1034;;(490.0,367.0);
303;0;Successful;TA;left;Vertical;D;144;48;1591343308831;(488.0,470.0);1591343309347;516;;(495.0,516.0);
304;0;Successful;TA;left;Vertical;U;144;48;1591343309842;(475.0,462.0);1591343310496;654;;(506.0,362.0);
305;0;Successful;TA;left;Vertical;D;144;48;1591343311139;(464.0,529.0);1591343312313;1174;;(466.0,519.0);
306;0;Successful;TA;left;Vertical;U;144;48;1591343312883;(499.0,470.0);1591343313723;840;;(487.0,373.0);
307;0;Successful;TA;left;Vertical;D;144;48;1591343314224;(505.0,487.0);1591343314742;518;;(510.0,518.0);
308;0;Successful;TA;left;Vertical;U;144;48;1591343315282;(498.0,438.0);1591343315900;618;;(510.0,371.0);
309;0;Successful;TA;left;Vertical;D;144;48;1591343316448;(512.0,514.0);1591343316975;527;;(516.0,521.0);
310;0;Successful;TA;left;Vertical;U;144;48;1591343317562;(535.0,395.0);1591343318016;454;;(543.0,359.0);
311;0;Successful;TA;left;Vertical;U;288;24;1591343325204;(546.0,609.0);1591343326392;1188;;(582.0,290.0);
312;0;Failed;TA;left;Vertical;D;288;24;1591343326901;(545.0,532.0);1591343328013;1112;;(561.0,569.0);
313;0;Successful;TA;left;Vertical;U;288;24;1591343328592;(556.0,496.0);1591343329724;1132;;(538.0,284.0);
314;0;Failed;TA;left;Vertical;D;288;24;1591343330267;(519.0,578.0);1591343331188;921;;(537.0,569.0);
315;0;Successful;TA;left;Vertical;U;288;24;1591343331720;(533.0,383.0);1591343332820;1100;;(517.0,295.0);
316;0;Successful;TA;left;Vertical;D;288;24;1591343333367;(516.0,538.0);1591343333962;595;;(527.0,585.0);
317;0;Successful;TA;left;Vertical;U;288;24;1591343334528;(515.0,377.0);1591343335222;694;;(534.0,301.0);
318;0;Successful;TA;left;Vertical;D;288;24;1591343335795;(541.0,522.0);1591343336453;658;;(554.0,586.0);
319;0;Successful;TA;left;Vertical;U;288;24;1591343336996;(546.0,436.0);1591343338288;1292;;(528.0,295.0);
320;0;Successful;TA;left;Vertical;D;288;24;1591343338812;(482.0,441.0);1591343340090;1278;;(515.0,576.0);
321;0;Successful;TA;left;Vertical;U;144;24;1591343345874;(523.0,553.0);1591343346875;1001;;(527.0,366.0);
322;0;Successful;TA;left;Vertical;D;144;24;1591343347397;(527.0,490.0);1591343347943;546;;(533.0,512.0);
323;0;Successful;TA;left;Vertical;U;144;24;1591343348471;(536.0,416.0);1591343349399;928;;(535.0,373.0);
324;0;Successful;TA;left;Vertical;D;144;24;1591343349926;(533.0,518.0);1591343351019;1093;;(537.0,505.0);
325;0;Successful;TA;left;Vertical;U;144;24;1591343351700;(553.0,399.0);1591343352389;689;;(547.0,365.0);
326;0;Successful;TA;left;Vertical;D;144;24;1591343353007;(525.0,519.0);1591343353492;485;;(526.0,516.0);
327;0;Successful;TA;left;Vertical;U;144;24;1591343354029;(538.0,513.0);1591343355629;1600;;(518.0,366.0);
328;0;Successful;TA;left;Vertical;D;144;24;1591343356212;(516.0,418.0);1591343357853;1641;;(522.0,504.0);
329;0;Successful;TA;left;Vertical;U;144;24;1591343358417;(521.0,488.0);1591343359750;1333;;(520.0,363.0);
330;0;Successful;TA;left;Vertical;D;144;24;1591343360335;(509.0,416.0);1591343361444;1109;;(517.0,502.0);
331;0;Successful;TA;left;Vertical;U;144;96;1591343365774;(513.0,555.0);1591343366394;620;;(518.0,372.0);
332;0;Successful;TA;left;Vertical;D;144;96;1591343367073;(513.0,522.0);1591343367406;333;;(516.0,528.0);
333;0;Successful;TA;left;Vertical;U;144;96;1591343367992;(548.0,372.0);1591343368535;543;;(542.0,346.0);
334;0;Successful;TA;left;Vertical;D;144;96;1591343369123;(513.0,525.0);1591343370153;1030;;(520.0,534.0);
335;0;Successful;TA;left;Vertical;U;144;96;1591343370759;(525.0,509.0);1591343371521;762;;(531.0,380.0);
336;0;Successful;TA;left;Vertical;D;144;96;1591343372172;(496.0,458.0);1591343372638;466;;(500.0,503.0);
337;0;Successful;TA;left;Vertical;U;144;96;1591343373256;(523.0,420.0);1591343373759;503;;(517.0,384.0);
338;0;Successful;TA;left;Vertical;D;144;96;1591343374346;(523.0,536.0);1591343374747;401;;(525.0,545.0);
339;0;Successful;TA;left;Vertical;U;144;96;1591343375360;(526.0,426.0);1591343375795;435;;(524.0,380.0);
340;0;Successful;TA;left;Vertical;D;144;96;1591343376341;(516.0,480.0);1591343376832;491;;(521.0,517.0);
341;0;Successful;TA;left;Horizontal;L;288;96;1591343382411;(364.0,470.0);1591343383351;940;;(668.0,389.0);
342;0;Successful;TA;left;Horizontal;R;288;96;1591343383935;(425.0,443.0);1591343384673;738;;(385.0,456.0);
343;0;Successful;TA;left;Horizontal;L;288;96;1591343385274;(538.0,422.0);1591343386102;828;;(678.0,401.0);
344;0;Successful;TA;left;Horizontal;R;288;96;1591343386678;(487.0,448.0);1591343387141;463;;(393.0,477.0);
345;0;Successful;TA;left;Horizontal;L;288;96;1591343387754;(629.0,445.0);1591343388252;498;;(667.0,444.0);
346;0;Successful;TA;left;Horizontal;R;288;96;1591343388849;(417.0,482.0);1591343389318;469;;(395.0,491.0);
347;0;Successful;TA;left;Horizontal;L;288;96;1591343389921;(636.0,438.0);1591343390502;581;;(670.0,426.0);
348;0;Successful;TA;left;Horizontal;R;288;96;1591343391073;(523.0,455.0);1591343391689;616;;(414.0,476.0);
349;0;Successful;TA;left;Horizontal;L;288;96;1591343392359;(612.0,426.0);1591343392974;615;;(673.0,428.0);
350;0;Successful;TA;left;Horizontal;R;288;96;1591343393609;(509.0,448.0);1591343394364;755;;(402.0,469.0);
351;0;Successful;TA;left;Vertical;U;576;24;1591343402430;(503.0,687.0);1591343403432;1002;;(483.0,146.0);
352;0;Successful;TA;left;Vertical;D;576;24;1591343403995;(463.0,578.0);1591343405105;1110;;(497.0,719.0);
353;0;Successful;TA;left;Vertical;U;576;24;1591343405704;(482.0,291.0);1591343406936;1232;;(453.0,149.0);
354;0;Successful;TA;left;Vertical;D;576;24;1591343407539;(466.0,662.0);1591343408260;721;;(479.0,724.0);
355;0;Successful;TA;left;Vertical;U;576;24;1591343408826;(438.0,249.0);1591343409848;1022;;(447.0,149.0);
356;0;Successful;TA;left;Vertical;D;576;24;1591343410454;(475.0,578.0);1591343411753;1299;;(526.0,725.0);
357;0;Successful;TA;left;Vertical;U;576;24;1591343412343;(475.0,266.0);1591343413769;1426;;(465.0,147.0);
358;0;Successful;TA;left;Vertical;D;576;24;1591343414418;(486.0,592.0);1591343415681;1263;;(500.0,737.0);
359;0;Failed;TA;left;Vertical;U;576;24;1591343416285;(467.0,463.0);1591343417552;1267;;(453.0,134.0);
360;0;Successful;TA;left;Vertical;D;576;24;1591343418126;(450.0,498.0);1591343419556;1430;;(509.0,722.0);
1;0;Failed;CC;right;Clockwise;;474;54;1591343998963;(538.0,377.0);1591344002801;3838;Exceed Path;(607.0,363.0);
2;0;Successful;CC;right;Anticlockwise;;474;40;1591344004817;(542.0,371.0);1591344012387;7570;;(540.0,364.0);
3;0;Successful;CC;right;Clockwise;;474;80;1591344013617;(539.0,372.0);1591344017367;3750;;(539.0,363.0);
4;0;Successful;CC;right;Anticlockwise;;237;40;1591344019048;(541.0,392.0);1591344023297;4249;;(540.0,396.0);
5;0;Successful;CC;right;Anticlockwise;;474;54;1591344025048;(542.0,367.0);1591344029948;4900;;(540.0,369.0);
6;0;Successful;CC;right;Anticlockwise;;237;54;1591344032064;(542.0,408.0);1591344034543;2479;;(540.0,413.0);
7;0;Successful;CC;right;Clockwise;;237;54;1591344037751;(539.0,395.0);1591344040442;2691;;(540.0,396.0);
8;0;Successful;CC;right;Anticlockwise;;237;80;1591344041319;(541.0,407.0);1591344042814;1495;;(541.0,416.0);
9;0;Successful;CC;right;Clockwise;;237;40;1591344044182;(538.0,391.0);1591344047459;3277;;(540.0,398.0);
10;0;Successful;CC;right;Clockwise;;474;40;1591344049579;(539.0,376.0);1591344054710;5131;;(540.0,356.0);
11;0;Successful;CC;right;Clockwise;;237;80;1591344056588;(539.0,418.0);1591344058403;1815;;(539.0,404.0);
12;0;Successful;CC;right;Anticlockwise;;474;80;1591344059923;(541.0,366.0);1591344063248;3325;;(542.0,381.0);
13;0;Successful;CC;right;Clockwise;;474;54;1591344066450;(539.0,369.0);1591344070066;3616;;(540.0,358.0);
14;0;Successful;CC;right;Clockwise;;474;80;1591344071583;(539.0,377.0);1591344073809;2226;;(536.0,370.0);
15;0;Successful;CC;right;Anticlockwise;;474;40;1591344075315;(541.0,365.0);1591344079975;4660;;(541.0,371.0);
16;0;Successful;CC;right;Anticlockwise;;237;40;1591344081573;(541.0,411.0);1591344084034;2461;;(540.0,402.0);
17;0;Successful;CC;right;Anticlockwise;;474;54;1591344085700;(544.0,371.0);1591344089081;3381;;(542.0,374.0);
18;0;Successful;CC;right;Anticlockwise;;237;54;1591344090630;(541.0,417.0);1591344092355;1725;;(540.0,409.0);
19;0;Successful;CC;right;Clockwise;;237;54;1591344095513;(537.0,407.0);1591344097903;2390;;(539.0,392.0);
20;0;Successful;CC;right;Anticlockwise;;237;80;1591344098879;(542.0,399.0);1591344100216;1337;;(545.0,412.0);
21;0;Successful;CC;right;Clockwise;;237;40;1591344101471;(539.0,395.0);1591344103817;2346;;(539.0,394.0);
22;0;Failed;CC;right;Clockwise;;474;40;1591344105868;(538.0,379.0);1591344105975;107;Exceed Path;(525.0,388.0);
23;0;Successful;CC;right;Clockwise;;237;80;1591344107764;(537.0,419.0);1591344109347;1583;;(540.0,400.0);
24;0;Successful;CC;right;Anticlockwise;;474;80;1591344110789;(543.0,366.0);1591344113175;2386;;(540.0,383.0);
25;0;Successful;CC;right;Clockwise;;474;54;1591344116491;(537.0,373.0);1591344119874;3383;;(540.0,370.0);
26;0;Successful;CC;right;Anticlockwise;;474;40;1591344120954;(543.0,367.0);1591344125121;4167;;(540.0,375.0);
27;0;Successful;CC;right;Clockwise;;474;80;1591344126019;(539.0,377.0);1591344128145;2126;;(538.0,379.0);
28;0;Successful;CC;right;Anticlockwise;;237;40;1591344129596;(542.0,404.0);1591344132088;2492;;(540.0,402.0);
29;0;Successful;CC;right;Anticlockwise;;474;54;1591344133872;(541.0,370.0);1591344137051;3179;;(544.0,372.0);
30;0;Successful;CC;right;Anticlockwise;;237;54;1591344138844;(544.0,392.0);1591344140626;1782;;(540.0,397.0);
31;0;Successful;CC;right;Anticlockwise;;237;80;1591344144485;(541.0,404.0);1591344145890;1405;;(541.0,407.0);
32;0;Successful;CC;right;Clockwise;;237;54;1591344146940;(539.0,402.0);1591344148796;1856;;(537.0,405.0);
33;0;Successful;CC;right;Clockwise;;237;40;1591344150584;(539.0,417.0);1591344153024;2440;;(540.0,401.0);
34;0;Successful;CC;right;Clockwise;;474;40;1591344155021;(536.0,375.0);1591344159108;4087;;(540.0,362.0);
35;0;Successful;CC;right;Anticlockwise;;474;80;1591344160035;(542.0,367.0);1591344161929;1894;;(542.0,383.0);
36;0;Successful;CC;right;Clockwise;;237;80;1591344162784;(537.0,381.0);1591344164151;1367;;(539.0,418.0);
37;0;Successful;CC;right;Clockwise;;474;54;1591344168388;(537.0,371.0);1591344171787;3399;;(538.0,369.0);
38;0;Successful;CC;right;Clockwise;;474;80;1591344173292;(538.0,383.0);1591344175348;2056;;(540.0,382.0);
39;0;Failed;CC;right;Anticlockwise;;474;40;1591344176512;(541.0,369.0);1591344177086;574;Exceed Path;(632.0,414.0);
40;0;Successful;CC;right;Anticlockwise;;237;40;1591344178978;(541.0,393.0);1591344181348;2370;;(540.0,406.0);
41;0;Successful;CC;right;Anticlockwise;;474;54;1591344183381;(543.0,366.0);1591344186775;3394;;(540.0,370.0);
42;0;Successful;CC;right;Anticlockwise;;237;54;1591344188786;(545.0,412.0);1591344190570;1784;;(540.0,400.0);
43;0;Successful;CC;right;Clockwise;;237;54;1591344194673;(537.0,404.0);1591344196333;1660;;(540.0,418.0);
44;0;Successful;CC;right;Anticlockwise;;237;80;1591344197310;(547.0,407.0);1591344198472;1162;;(541.0,419.0);
45;0;Successful;CC;right;Clockwise;;474;40;1591344200093;(539.0,364.0);1591344203836;3743;;(539.0,372.0);
46;0;Successful;CC;right;Clockwise;;237;40;1591344205588;(538.0,402.0);1591344207727;2139;;(538.0,401.0);
47;0;Successful;CC;right;Anticlockwise;;474;80;1591344208954;(544.0,365.0);1591344211018;2064;;(541.0,366.0);
48;0;Successful;CC;right;Clockwise;;237;80;1591344212348;(538.0,405.0);1591344213776;1428;;(538.0,393.0);
49;0;Successful;CC;right;Clockwise;;474;54;1591344217624;(537.0,373.0);1591344220692;3068;;(540.0,374.0);
50;0;Successful;CC;right;Clockwise;;474;80;1591344222005;(535.0,368.0);1591344224270;2265;;(539.0,369.0);
51;0;Failed;CC;right;Anticlockwise;;474;40;1591344225469;(542.0,364.0);1591344226561;1092;Exceed Path;(631.0,471.0);
52;0;Successful;CC;right;Anticlockwise;;237;40;1591344228491;(545.0,396.0);1591344230366;1875;;(543.0,413.0);
53;0;Successful;CC;right;Anticlockwise;;474;54;1591344231801;(544.0,365.0);1591344234276;2475;;(541.0,365.0);
54;0;Successful;CC;right;Anticlockwise;;237;54;1591344235807;(547.0,414.0);1591344237267;1460;;(542.0,414.0);
55;0;Successful;CC;right;Clockwise;;237;54;1591344240288;(539.0,403.0);1591344242062;1774;;(539.0,405.0);
56;0;Successful;CC;right;Anticlockwise;;237;80;1591344242909;(542.0,408.0);1591344244101;1192;;(542.0,419.0);
57;0;Successful;CC;right;Clockwise;;474;40;1591344245434;(536.0,367.0);1591344248881;3447;;(539.0,368.0);
58;0;Failed;CC;right;Clockwise;;237;40;1591344250440;(535.0,426.0);1591344250474;34;Exceed Path;(531.0,426.0);
59;0;Successful;CC;right;Anticlockwise;;474;80;1591344251837;(544.0,383.0);1591344253541;1704;;(541.0,371.0);
60;0;Successful;CC;right;Clockwise;;237;80;1591344254702;(534.0,403.0);1591344256034;1332;;(539.0,400.0);
61;0;Failed;CC;left;Clockwise;;474;54;1591344438883;(538.0,365.0);1591344441315;2432;Exceed Path;(594.0,528.0);
62;0;Successful;CC;left;Anticlockwise;;474;40;1591344444079;(541.0,363.0);1591344452590;8511;;(540.0,346.0);
63;0;Successful;CC;left;Clockwise;;474;80;1591344453842;(538.0,367.0);1591344457369;3527;;(539.0,353.0);
64;0;Successful;CC;left;Anticlockwise;;237;40;1591344459157;(541.0,401.0);1591344463618;4461;;(540.0,397.0);
65;0;Failed;CC;left;Anticlockwise;;474;54;1591344465682;(544.0,358.0);1591344466330;648;Exceed Path;(642.0,475.0);
66;0;Successful;CC;left;Anticlockwise;;237;54;1591344468485;(541.0,404.0);1591344470752;2267;;(540.0,412.0);
67;0;Successful;CC;left;Clockwise;;237;54;1591344474451;(539.0,401.0);1591344477686;3235;;(540.0,410.0);
68;0;Successful;CC;left;Anticlockwise;;237;80;1591344478798;(543.0,406.0);1591344480443;1645;;(541.0,428.0);
69;0;Successful;CC;left;Clockwise;;237;40;1591344482016;(539.0,402.0);1591344486257;4241;;(540.0,408.0);
70;0;Successful;CC;left;Clockwise;;474;40;1591344488072;(539.0,363.0);1591344494813;6741;;(539.0,353.0);
71;0;Successful;CC;left;Clockwise;;237;80;1591344496547;(539.0,400.0);1591344498437;1890;;(539.0,418.0);
72;0;Successful;CC;left;Anticlockwise;;474;80;1591344499936;(542.0,384.0);1591344503349;3413;;(540.0,363.0);
73;0;Successful;CC;left;Clockwise;;474;54;1591344506735;(536.0,366.0);1591344511153;4418;;(540.0,353.0);
74;0;Successful;CC;left;Clockwise;;474;80;1591344512612;(531.0,368.0);1591344515647;3035;;(539.0,376.0);
75;0;Successful;CC;left;Anticlockwise;;474;40;1591344516676;(543.0,359.0);1591344522347;5671;;(540.0,349.0);
76;0;Successful;CC;left;Anticlockwise;;237;40;1591344524284;(542.0,399.0);1591344527494;3210;;(540.0,402.0);
77;0;Failed;CC;left;Anticlockwise;;474;54;1591344529741;(541.0,368.0);1591344533412;3671;Exceed Path;(497.0,459.0);
78;0;Successful;CC;left;Anticlockwise;;237;54;1591344534928;(543.0,406.0);1591344537536;2608;;(540.0,403.0);
79;0;Successful;CC;left;Clockwise;;237;54;1591344542157;(539.0,388.0);1591344544454;2297;;(540.0,416.0);
80;0;Successful;CC;left;Anticlockwise;;237;80;1591344545550;(541.0,411.0);1591344546859;1309;;(542.0,416.0);
81;0;Successful;CC;left;Clockwise;;237;40;1591344548204;(537.0,395.0);1591344551370;3166;;(540.0,404.0);
82;0;Successful;CC;left;Clockwise;;474;40;1591344553218;(536.0,375.0);1591344557904;4686;;(539.0,368.0);
83;0;Successful;CC;left;Clockwise;;237;80;1591344559553;(539.0,402.0);1591344560946;1393;;(538.0,412.0);
84;0;Successful;CC;left;Anticlockwise;;474;80;1591344562133;(543.0,379.0);1591344564904;2771;;(541.0,364.0);
85;0;Successful;CC;left;Clockwise;;474;54;1591344568219;(538.0,384.0);1591344571905;3686;;(539.0,364.0);
86;0;Failed;CC;left;Anticlockwise;;474;40;1591344573152;(541.0,372.0);1591344576904;3752;Exceed Path;(501.0,478.0);
87;0;Successful;CC;left;Clockwise;;474;80;1591344578865;(534.0,360.0);1591344581514;2649;;(538.0,395.0);
88;0;Successful;CC;left;Anticlockwise;;237;40;1591344582826;(543.0,416.0);1591344585790;2964;;(540.0,399.0);
89;0;Failed;CC;left;Anticlockwise;;474;54;1591344600775;(542.0,379.0);1591344602603;1828;Exceed Path;(477.0,523.0);
90;0;Successful;CC;left;Anticlockwise;;237;54;1591344605170;(542.0,411.0);1591344608229;3059;;(540.0,410.0);
91;0;Successful;CC;left;Anticlockwise;;237;80;1591344613739;(541.0,414.0);1591344615414;1675;;(540.0,432.0);
92;0;Successful;CC;left;Clockwise;;237;54;1591344616446;(537.0,410.0);1591344619342;2896;;(540.0,409.0);
93;0;Successful;CC;left;Clockwise;;237;40;1591344621296;(539.0,402.0);1591344626309;5013;;(540.0,418.0);
94;0;Successful;CC;left;Clockwise;;474;40;1591344628590;(538.0,368.0);1591344635013;6423;;(539.0,360.0);
95;0;Successful;CC;left;Anticlockwise;;474;80;1591344641204;(541.0,384.0);1591344644440;3236;;(540.0,377.0);
96;0;Successful;CC;left;Clockwise;;237;80;1591344645713;(539.0,387.0);1591344647245;1532;;(540.0,414.0);
97;0;Successful;CC;left;Clockwise;;474;54;1591344652479;(539.0,370.0);1591344658505;6026;;(540.0,369.0);
98;0;Successful;CC;left;Clockwise;;474;80;1591344660579;(539.0,378.0);1591344663919;3340;;(539.0,377.0);
99;0;Successful;CC;left;Anticlockwise;;474;40;1591344665866;(542.0,367.0);1591344676669;10803;;(540.0,354.0);
100;0;Successful;CC;left;Anticlockwise;;237;40;1591344678883;(543.0,410.0);1591344682450;3567;;(540.0,401.0);
101;0;Successful;CC;left;Anticlockwise;;474;54;1591344684234;(543.0,368.0);1591344689566;5332;;(540.0,366.0);
102;0;Successful;CC;left;Anticlockwise;;237;54;1591344690876;(542.0,395.0);1591344693426;2550;;(540.0,411.0);
103;0;Failed;CC;left;Clockwise;;237;54;1591344696871;(539.0,405.0);1591344697522;651;Exceed Path;(476.0,428.0);
104;0;Successful;CC;left;Anticlockwise;;237;80;1591344698954;(542.0,417.0);1591344700478;1524;;(540.0,424.0);
105;0;Failed;CC;left;Clockwise;;474;40;1591344702133;(537.0,364.0);1591344705610;3477;Exceed Path;(610.0,507.0);
106;0;Successful;CC;left;Clockwise;;237;40;1591344707237;(537.0,401.0);1591344709768;2531;;(540.0,407.0);
107;0;Successful;CC;left;Anticlockwise;;474;80;1591344711111;(546.0,379.0);1591344713862;2751;;(544.0,360.0);
108;0;Successful;CC;left;Clockwise;;237;80;1591344715537;(539.0,404.0);1591344717287;1750;;(539.0,411.0);
109;0;Successful;CC;left;Clockwise;;474;54;1591344722569;(537.0,370.0);1591344726797;4228;;(539.0,373.0);
110;0;Successful;CC;left;Clockwise;;474;80;1591344728561;(537.0,374.0);1591344731189;2628;;(538.0,379.0);
111;0;Successful;CC;left;Anticlockwise;;474;40;1591344732839;(541.0,368.0);1591344737771;4932;;(542.0,365.0);
112;0;Successful;CC;left;Anticlockwise;;237;40;1591344739751;(541.0,405.0);1591344742265;2514;;(541.0,398.0);
113;0;Successful;CC;left;Anticlockwise;;474;54;1591344744090;(543.0,371.0);1591344747946;3856;;(541.0,364.0);
114;0;Successful;CC;left;Anticlockwise;;237;54;1591344749976;(543.0,405.0);1591344752408;2432;;(540.0,405.0);
115;0;Successful;CC;left;Clockwise;;237;54;1591344755702;(539.0,403.0);1591344757235;1533;;(540.0,424.0);
116;0;Successful;CC;left;Anticlockwise;;237;80;1591344758568;(542.0,415.0);1591344759959;1391;;(541.0,408.0);
117;0;Successful;CC;left;Clockwise;;474;40;1591344761806;(538.0,366.0);1591344767494;5688;;(540.0,373.0);
118;0;Failed;CC;left;Clockwise;;237;40;1591344769537;(539.0,405.0);1591344770171;634;Exceed Path;(482.0,431.0);
119;0;Successful;CC;left;Anticlockwise;;474;80;1591344771587;(542.0,384.0);1591344774412;2825;;(541.0,372.0);
120;0;Successful;CC;left;Clockwise;;237;80;1591344776036;(539.0,397.0);1591344777587;1551;;(540.0,415.0);
1;0;Successful;CL;right;Rightward;;474;40;1591345216311;(776.0,439.0);1591345220582;4271;;(303.0,445.0);
2;0;Successful;CL;right;Leftward;;474;80;1591345221429;(307.0,441.0);1591345224342;2913;;(778.0,429.0);
3;0;Successful;CL;right;Downward;;237;54;1591345226106;(541.0,324.0);1591345227732;1626;;(531.0,562.0);
4;0;Successful;CL;right;Upward;;237;80;1591345228594;(531.0,557.0);1591345229539;945;;(538.0,312.0);
5;0;Successful;CL;right;Rightward;;474;54;1591345231293;(775.0,424.0);1591345234783;3490;;(298.0,437.0);
6;0;Successful;CL;right;Downward;;474;54;1591345237315;(553.0,204.0);1591345240898;3583;;(522.0,679.0);
7;0;Successful;CL;right;Rightward;;237;80;1591345245019;(656.0,430.0);1591345246046;1027;;(409.0,451.0);
8;0;Successful;CL;right;Upward;;237;54;1591345247706;(539.0,552.0);1591345248919;1213;;(532.0,315.0);
9;0;Successful;CL;right;Upward;;237;40;1591345250803;(545.0,556.0);1591345252178;1375;;(529.0,317.0);
10;0;Successful;CL;right;Downward;;474;80;1591345253541;(566.0,205.0);1591345255434;1893;;(531.0,685.0);
11;0;Successful;CL;right;Downward;;237;80;1591345257300;(545.0,329.0);1591345258059;759;;(565.0,562.0);
12;0;Successful;CL;right;Upward;;474;40;1591345260808;(541.0,674.0);1591345264258;3450;;(536.0,201.0);
13;0;Successful;CL;right;Downward;;474;40;1591345268177;(553.0,204.0);1591345271827;3650;;(543.0,680.0);
14;0;Successful;CL;right;Downward;;237;40;1591345274362;(539.0,323.0);1591345276053;1691;;(538.0,561.0);
15;0;Successful;CL;right;Leftward;;474;54;1591345277931;(305.0,431.0);1591345281051;3120;;(780.0,430.0);
16;0;Successful;CL;right;Rightward;;237;40;1591345282866;(657.0,436.0);1591345284858;1992;;(417.0,444.0);
17;0;Successful;CL;right;Upward;;474;80;1591345286438;(514.0,673.0);1591345288167;1729;;(507.0,202.0);
18;0;Successful;CL;right;Rightward;;237;54;1591345290514;(655.0,433.0);1591345292279;1765;;(418.0,437.0);
19;0;Successful;CL;right;Upward;;474;54;1591345297042;(539.0,675.0);1591345300713;3671;;(526.0,202.0);
20;0;Successful;CL;right;Leftward;;237;54;1591345303591;(423.0,440.0);1591345305176;1585;;(661.0,450.0);
21;0;Successful;CL;right;Leftward;;237;40;1591345307603;(424.0,430.0);1591345309253;1650;;(663.0,436.0);
22;0;Failed;CL;right;Leftward;;474;40;1591345310922;(305.0,460.0);1591345310963;41;Exceed Path;(309.0,461.0);
23;0;Successful;CL;right;Leftward;;237;80;1591345311766;(423.0,440.0);1591345312878;1112;;(661.0,439.0);
24;0;Successful;CL;right;Rightward;;474;80;1591345314662;(775.0,440.0);1591345318009;3347;;(303.0,434.0);
25;0;Successful;CL;right;Rightward;;474;40;1591345323494;(776.0,442.0);1591345328653;5159;;(301.0,443.0);
26;0;Successful;CL;right;Leftward;;474;80;1591345329706;(305.0,440.0);1591345332060;2354;;(779.0,438.0);
27;0;Successful;CL;right;Downward;;237;54;1591345339554;(522.0,326.0);1591345341001;1447;;(522.0,560.0);
28;0;Successful;CL;right;Upward;;237;80;1591345341912;(542.0,553.0);1591345342855;943;;(557.0,315.0);
29;0;Successful;CL;right;Rightward;;474;54;1591345345004;(776.0,431.0);1591345348802;3798;;(299.0,428.0);
30;0;Successful;CL;right;Downward;;474;54;1591345351922;(565.0,205.0);1591345356420;4498;;(538.0,680.0);
31;0;Successful;CL;right;Rightward;;237;80;1591345360393;(655.0,423.0);1591345360966;573;;(409.0,417.0);
32;0;Successful;CL;right;Upward;;237;54;1591345362310;(520.0,555.0);1591345363371;1061;;(546.0,315.0);
33;0;Successful;CL;right;Upward;;237;40;1591345365532;(545.0,556.0);1591345366865;1333;;(540.0,318.0);
34;0;Successful;CL;right;Downward;;474;80;1591345368245;(548.0,204.0);1591345369488;1243;;(529.0,689.0);
35;0;Successful;CL;right;Downward;;237;80;1591345371535;(568.0,325.0);1591345372144;609;;(560.0,568.0);
36;0;Failed;CL;right;Downward;;474;40;1591345374643;(549.0,204.0);1591345376522;1879;Exceed Path;(517.0,664.0);
37;0;Successful;CL;right;Upward;;474;40;1591345381796;(550.0,675.0);1591345384807;3011;;(536.0,198.0);
38;0;Successful;CL;right;Downward;;237;40;1591345386256;(537.0,326.0);1591345387583;1327;;(538.0,563.0);
39;0;Successful;CL;right;Leftward;;474;54;1591345389514;(306.0,432.0);1591345391927;2413;;(782.0,427.0);
40;0;Successful;CL;right;Rightward;;237;40;1591345393696;(656.0,448.0);1591345394850;1154;;(410.0,432.0);
41;0;Successful;CL;right;Upward;;474;80;1591345398043;(548.0,673.0);1591345399445;1402;;(531.0,201.0);
42;0;Successful;CL;right;Rightward;;237;54;1591345402554;(655.0,438.0);1591345403623;1069;;(404.0,444.0);
43;0;Successful;CL;right;Upward;;474;54;1591345407628;(543.0,674.0);1591345409270;1642;;(515.0,197.0);
44;0;Successful;CL;right;Leftward;;237;54;1591345411193;(423.0,439.0);1591345412225;1032;;(668.0,459.0);
45;0;Failed;CL;right;Leftward;;474;40;1591345414256;(305.0,417.0);1591345414293;37;Exceed Path;(318.0,417.0);
46;0;Failed;CL;right;Leftward;;237;40;1591345415228;(424.0,435.0);1591345415587;359;Exceed Path;(501.0,461.0);
47;0;Successful;CL;right;Leftward;;237;80;1591345417127;(435.0,440.0);1591345418171;1044;;(666.0,421.0);
48;0;Successful;CL;right;Rightward;;474;80;1591345419757;(772.0,438.0);1591345422422;2665;;(300.0,423.0);
49;0;Failed;CL;right;Rightward;;474;40;1591345428832;(775.0,425.0);1591345431308;2476;Exceed Path;(405.0,462.0);
50;0;Successful;CL;right;Leftward;;474;80;1591345432804;(313.0,423.0);1591345434284;1480;;(783.0,448.0);
51;0;Successful;CL;right;Downward;;237;54;1591345436299;(566.0,325.0);1591345437189;890;;(530.0,571.0);
52;0;Successful;CL;right;Upward;;237;80;1591345438457;(534.0,557.0);1591345439162;705;;(550.0,315.0);
53;0;Successful;CL;right;Rightward;;474;54;1591345440677;(776.0,444.0);1591345443054;2377;;(297.0,452.0);
54;0;Successful;CL;right;Downward;;474;54;1591345445176;(547.0,204.0);1591345447683;2507;;(549.0,681.0);
55;0;Successful;CL;right;Rightward;;237;80;1591345451900;(656.0,418.0);1591345453098;1198;;(412.0,437.0);
56;0;Successful;CL;right;Upward;;237;54;1591345454756;(531.0,556.0);1591345455837;1081;;(547.0,314.0);
57;0;Successful;CL;right;Upward;;237;40;1591345457859;(544.0,557.0);1591345459162;1303;;(550.0,312.0);
58;0;Successful;CL;right;Downward;;474;80;1591345460623;(564.0,210.0);1591345462086;1463;;(541.0,682.0);
59;0;Successful;CL;right;Downward;;237;80;1591345464168;(536.0,325.0);1591345464726;558;;(542.0,565.0);
60;0;Failed;CL;right;Upward;;474;40;1591345466496;(532.0,676.0);1591345467083;587;Exceed Path;(561.0,550.0);
61;0;Failed;CL;right;Downward;;474;40;1591345471877;(552.0,205.0);1591345473682;1805;Exceed Path;(519.0,658.0);
62;0;Successful;CL;right;Leftward;;474;54;1591345475500;(305.0,423.0);1591345477458;1958;;(780.0,437.0);
63;0;Failed;CL;right;Downward;;237;40;1591345479464;(547.0,326.0);1591345480330;866;Exceed Path;(518.0,557.0);
64;0;Successful;CL;right;Rightward;;237;40;1591345484215;(654.0,437.0);1591345485578;1363;;(418.0,433.0);
65;0;Successful;CL;right;Upward;;474;80;1591345488452;(545.0,673.0);1591345490105;1653;;(547.0,196.0);
66;0;Successful;CL;right;Rightward;;237;54;1591345493019;(653.0,449.0);1591345494317;1298;;(409.0,447.0);
67;0;Successful;CL;right;Upward;;474;54;1591345498322;(537.0,674.0);1591345500801;2479;;(514.0,199.0);
68;0;Successful;CL;right;Leftward;;237;54;1591345502597;(425.0,457.0);1591345503792;1195;;(668.0,434.0);
69;0;Successful;CL;right;Leftward;;474;40;1591345506116;(306.0,424.0);1591345509437;3321;;(782.0,434.0);
70;0;Successful;CL;right;Leftward;;237;40;1591345511341;(425.0,441.0);1591345512281;940;;(663.0,439.0);
71;0;Successful;CL;right;Leftward;;237;80;1591345513942;(428.0,441.0);1591345514450;508;;(671.0,439.0);
72;0;Successful;CL;right;Rightward;;474;80;1591345515868;(775.0,411.0);1591345517574;1706;;(299.0,460.0);
73;0;Failed;CL;right;Rightward;;474;40;1591345521780;(776.0,442.0);1591345522368;588;Exceed Path;(650.0,418.0);
74;0;Successful;CL;right;Leftward;;474;80;1591345524101;(305.0,437.0);1591345525579;1478;;(785.0,421.0);
75;0;Successful;CL;right;Downward;;237;54;1591345527859;(549.0,325.0);1591345528803;944;;(540.0,568.0);
76;0;Successful;CL;right;Upward;;237;80;1591345529917;(529.0,555.0);1591345530625;708;;(562.0,313.0);
77;0;Failed;CL;right;Rightward;;474;54;1591345532238;(774.0,433.0);1591345532646;408;Exceed Path;(667.0,412.0);
78;0;Failed;CL;right;Downward;;474;54;1591345534393;(548.0,205.0);1591345536188;1795;Exceed Path;(512.0,656.0);
79;0;Failed;CL;right;Rightward;;237;80;1591345540011;(657.0,405.0);1591345540300;289;Exceed Path;(591.0,398.0);
80;0;Successful;CL;right;Upward;;237;54;1591345541922;(539.0,556.0);1591345543557;1635;;(548.0,320.0);
81;0;Successful;CL;right;Upward;;237;40;1591345546171;(545.0,553.0);1591345548102;1931;;(550.0,318.0);
82;0;Successful;CL;right;Downward;;474;80;1591345549767;(550.0,207.0);1591345551343;1576;;(531.0,681.0);
83;0;Successful;CL;right;Downward;;237;80;1591345553803;(553.0,324.0);1591345554517;714;;(562.0,563.0);
84;0;Successful;CL;right;Downward;;474;40;1591345557303;(545.0,205.0);1591345560100;2797;;(530.0,680.0);
85;0;Successful;CL;right;Upward;;474;40;1591345564749;(534.0,672.0);1591345568067;3318;;(537.0,201.0);
86;0;Successful;CL;right;Downward;;237;40;1591345571361;(547.0,324.0);1591345572629;1268;;(551.0,565.0);
87;0;Successful;CL;right;Leftward;;474;54;1591345575103;(305.0,421.0);1591345577926;2823;;(779.0,417.0);
88;0;Successful;CL;right;Rightward;;237;40;1591345579580;(657.0,437.0);1591345581385;1805;;(415.0,439.0);
89;0;Successful;CL;right;Upward;;474;80;1591345583034;(513.0,676.0);1591345584608;1574;;(527.0,199.0);
90;0;Successful;CL;right;Rightward;;237;54;1591345586369;(652.0,450.0);1591345587533;1164;;(413.0,438.0);
91;0;Successful;CL;right;Upward;;474;54;1591345591330;(535.0,675.0);1591345593633;2303;;(526.0,198.0);
92;0;Failed;CL;right;Leftward;;237;54;1591345595485;(423.0,457.0);1591345596038;553;Exceed Path;(518.0,469.0);
93;0;Successful;CL;right;Leftward;;237;40;1591345597764;(423.0,428.0);1591345599846;2082;;(661.0,436.0);
94;0;Successful;CL;right;Leftward;;474;40;1591345601980;(304.0,448.0);1591345605729;3749;;(781.0,426.0);
95;0;Successful;CL;right;Leftward;;237;80;1591345607655;(435.0,437.0);1591345608286;631;;(670.0,447.0);
96;0;Successful;CL;right;Rightward;;474;80;1591345609091;(768.0,430.0);1591345611076;1985;;(301.0,444.0);
97;0;Successful;CL;right;Rightward;;474;40;1591345616014;(776.0,436.0);1591345618879;2865;;(300.0,446.0);
98;0;Successful;CL;right;Leftward;;474;80;1591345619957;(310.0,450.0);1591345621719;1762;;(784.0,424.0);
99;0;Successful;CL;right;Downward;;237;54;1591345623365;(560.0,330.0);1591345624259;894;;(540.0,561.0);
100;0;Successful;CL;right;Upward;;237;80;1591345625322;(517.0,557.0);1591345626047;725;;(554.0,312.0);
101;0;Successful;CL;right;Rightward;;474;54;1591345627478;(776.0,465.0);1591345629605;2127;;(299.0,446.0);
102;0;Failed;CL;right;Downward;;474;54;1591345631502;(542.0,204.0);1591345633448;1946;Exceed Path;(511.0,609.0);
103;0;Successful;CL;right;Rightward;;237;80;1591345638711;(656.0,436.0);1591345639599;888;;(413.0,451.0);
104;0;Successful;CL;right;Upward;;237;54;1591345642673;(554.0,557.0);1591345643990;1317;;(543.0,319.0);
105;0;Successful;CL;right;Upward;;237;40;1591345646269;(551.0,556.0);1591345647650;1381;;(538.0,319.0);
106;0;Successful;CL;right;Downward;;474;80;1591345649033;(548.0,206.0);1591345650492;1459;;(529.0,683.0);
107;0;Successful;CL;right;Downward;;237;80;1591345652741;(537.0,325.0);1591345653348;607;;(574.0,570.0);
108;0;Successful;CL;right;Downward;;474;40;1591345655403;(543.0,205.0);1591345656908;1505;;(524.0,684.0);
109;0;Failed;CL;right;Upward;;474;40;1591345661592;(549.0,673.0);1591345662438;846;Exceed Path;(561.0,491.0);
110;0;Successful;CL;right;Leftward;;474;54;1591345664637;(307.0,435.0);1591345666380;1743;;(781.0,427.0);
111;0;Successful;CL;right;Downward;;237;40;1591345668506;(542.0,323.0);1591345669639;1133;;(541.0,564.0);
112;0;Failed;CL;right;Rightward;;237;40;1591345671466;(657.0,422.0);1591345671595;129;Exceed Path;(628.0,419.0);
113;0;Successful;CL;right;Upward;;474;80;1591345673560;(534.0,676.0);1591345675387;1827;;(535.0,194.0);
114;0;Successful;CL;right;Rightward;;237;54;1591345677127;(657.0,459.0);1591345678494;1367;;(413.0,436.0);
115;0;Successful;CL;right;Upward;;474;54;1591345682344;(533.0,673.0);1591345684711;2367;;(533.0,197.0);
116;0;Successful;CL;right;Leftward;;237;54;1591345686491;(423.0,450.0);1591345687553;1062;;(666.0,438.0);
117;0;Successful;CL;right;Leftward;;237;40;1591345689614;(425.0,432.0);1591345690759;1145;;(662.0,444.0);
118;0;Failed;CL;right;Leftward;;474;40;1591345692700;(306.0,439.0);1591345695520;2820;Exceed Path;(755.0,419.0);
119;0;Successful;CL;right;Rightward;;474;80;1591345697846;(773.0,445.0);1591345699614;1768;;(299.0,451.0);
120;0;Successful;CL;right;Leftward;;237;80;1591345700991;(423.0,429.0);1591345701821;830;;(663.0,439.0);
121;0;Successful;CL;left;Rightward;;474;40;1591346024559;(775.0,451.0);1591346028773;4214;;(302.0,444.0);
122;0;Successful;CL;left;Leftward;;474;80;1591346030366;(306.0,444.0);1591346032697;2331;;(783.0,448.0);
123;0;Failed;CL;left;Downward;;237;54;1591346034274;(548.0,323.0);1591346034569;295;Exceed Path;(511.0,326.0);
124;0;Successful;CL;left;Upward;;237;80;1591346038035;(512.0,555.0);1591346040098;2063;;(537.0,316.0);
125;0;Successful;CL;left;Rightward;;474;54;1591346043733;(776.0,419.0);1591346047818;4085;;(301.0,464.0);
126;0;Successful;CL;left;Downward;;474;54;1591346053443;(543.0,204.0);1591346057377;3934;;(537.0,681.0);
127;0;Successful;CL;left;Rightward;;237;80;1591346061599;(655.0,428.0);1591346063057;1458;;(414.0,441.0);
128;0;Successful;CL;left;Upward;;237;54;1591346065500;(534.0,557.0);1591346067250;1750;;(524.0,321.0);
129;0;Successful;CL;left;Upward;;237;40;1591346069586;(558.0,557.0);1591346072212;2626;;(535.0,318.0);
130;0;Failed;CL;left;Downward;;474;80;1591346074772;(499.0,207.0);1591346074812;40;Exceed Path;(499.0,208.0);
131;0;Failed;CL;left;Downward;;237;80;1591346076179;(506.0,323.0);1591346076573;394;Exceed Path;(499.0,352.0);
132;0;Failed;CL;left;Upward;;474;40;1591346079197;(530.0,676.0);1591346086132;6935;Exceed Path;(562.0,234.0);
133;0;Successful;CL;left;Downward;;474;40;1591346094299;(547.0,204.0);1591346103341;9042;;(539.0,679.0);
134;0;Successful;CL;left;Downward;;237;40;1591346107677;(534.0,324.0);1591346110709;3032;;(540.0,559.0);
135;0;Successful;CL;left;Leftward;;474;54;1591346113197;(304.0,428.0);1591346117298;4101;;(779.0,453.0);
136;0;Successful;CL;left;Rightward;;237;40;1591346118782;(657.0,437.0);1591346121202;2420;;(420.0,455.0);
137;0;Successful;CL;left;Upward;;474;80;1591346123481;(536.0,675.0);1591346127888;4407;;(552.0,201.0);
138;0;Successful;CL;left;Rightward;;237;54;1591346131014;(657.0,439.0);1591346133600;2586;;(420.0,447.0);
139;0;Successful;CL;left;Upward;;474;54;1591346138436;(541.0,674.0);1591346145146;6710;;(545.0,202.0);
140;0;Successful;CL;left;Leftward;;237;54;1591346147892;(423.0,431.0);1591346149975;2083;;(659.0,435.0);
141;0;Successful;CL;left;Leftward;;237;40;1591346153392;(424.0,440.0);1591346155790;2398;;(660.0,439.0);
142;0;Successful;CL;left;Leftward;;474;40;1591346158987;(305.0,431.0);1591346163876;4889;;(778.0,445.0);
143;0;Successful;CL;left;Leftward;;237;80;1591346166957;(426.0,426.0);1591346168403;1446;;(664.0,429.0);
144;0;Successful;CL;left;Rightward;;474;80;1591346170041;(776.0,442.0);1591346174151;4110;;(301.0,450.0);
145;0;Successful;CL;left;Rightward;;474;40;1591346179108;(776.0,428.0);1591346183610;4502;;(299.0,442.0);
146;0;Successful;CL;left;Leftward;;474;80;1591346185054;(305.0,443.0);1591346188805;3751;;(778.0,456.0);
147;0;Successful;CL;left;Downward;;237;54;1591346191472;(530.0,324.0);1591346193400;1928;;(540.0,561.0);
148;0;Successful;CL;left;Upward;;237;80;1591346194903;(548.0,557.0);1591346196357;1454;;(524.0,319.0);
149;0;Successful;CL;left;Rightward;;474;54;1591346199289;(774.0,424.0);1591346203041;3752;;(300.0,441.0);
150;0;Successful;CL;left;Downward;;474;54;1591346209982;(544.0,204.0);1591346213333;3351;;(522.0,678.0);
151;0;Successful;CL;left;Rightward;;237;80;1591346217169;(656.0,450.0);1591346217929;760;;(415.0,454.0);
152;0;Successful;CL;left;Upward;;237;54;1591346219998;(520.0,557.0);1591346221287;1289;;(547.0,319.0);
153;0;Successful;CL;left;Upward;;237;40;1591346224253;(542.0,557.0);1591346226132;1879;;(542.0,310.0);
154;0;Failed;CL;left;Downward;;474;80;1591346228303;(514.0,204.0);1591346228754;451;Exceed Path;(498.0,258.0);
155;0;Successful;CL;left;Downward;;237;80;1591346231754;(547.0,327.0);1591346232547;793;;(570.0,570.0);
156;0;Successful;CL;left;Downward;;474;40;1591346235201;(537.0,205.0);1591346238997;3796;;(541.0,678.0);
157;0;Successful;CL;left;Upward;;474;40;1591346242415;(534.0,670.0);1591346246416;4001;;(550.0,203.0);
158;0;Failed;CL;left;Downward;;237;40;1591346249479;(550.0,324.0);1591346250208;729;Exceed Path;(519.0,405.0);
159;0;Successful;CL;left;Leftward;;474;54;1591346252441;(304.0,431.0);1591346255555;3114;;(779.0,439.0);
160;0;Successful;CL;left;Rightward;;237;40;1591346256852;(654.0,441.0);1591346258614;1762;;(416.0,459.0);
161;0;Successful;CL;left;Upward;;474;80;1591346260619;(552.0,674.0);1591346262958;2339;;(550.0,200.0);
162;0;Successful;CL;left;Rightward;;237;54;1591346264987;(651.0,462.0);1591346266116;1129;;(411.0,458.0);
163;0;Successful;CL;left;Upward;;474;54;1591346270011;(541.0,675.0);1591346272148;2137;;(552.0,200.0);
164;0;Successful;CL;left;Leftward;;237;54;1591346274298;(425.0,419.0);1591346275490;1192;;(663.0,447.0);
165;0;Successful;CL;left;Leftward;;474;40;1591346279051;(304.0,443.0);1591346282891;3840;;(780.0,439.0);
166;0;Successful;CL;left;Leftward;;237;40;1591346285380;(426.0,441.0);1591346287034;1654;;(662.0,433.0);
167;0;Successful;CL;left;Leftward;;237;80;1591346289236;(426.0,448.0);1591346290010;774;;(666.0,451.0);
168;0;Successful;CL;left;Rightward;;474;80;1591346291672;(768.0,440.0);1591346293750;2078;;(298.0,452.0);
169;0;Successful;CL;left;Rightward;;474;40;1591346298569;(775.0,455.0);1591346303192;4623;;(301.0,447.0);
170;0;Successful;CL;left;Leftward;;474;80;1591346304822;(304.0,438.0);1591346306482;1660;;(777.0,460.0);
171;0;Successful;CL;left;Downward;;237;54;1591346309586;(531.0,323.0);1591346310676;1090;;(532.0,564.0);
172;0;Successful;CL;left;Upward;;237;80;1591346312061;(537.0,557.0);1591346312867;806;;(552.0,315.0);
173;0;Failed;CL;left;Rightward;;474;54;1591346315218;(775.0,461.0);1591346316926;1708;Exceed Path;(384.0,468.0);
174;0;Successful;CL;left;Downward;;474;54;1591346319088;(514.0,208.0);1591346321855;2767;;(553.0,687.0);
175;0;Successful;CL;left;Rightward;;237;80;1591346325771;(656.0,447.0);1591346326484;713;;(408.0,442.0);
176;0;Failed;CL;left;Upward;;237;54;1591346328364;(505.0,553.0);1591346328409;45;Exceed Path;(502.0,551.0);
177;0;Successful;CL;left;Upward;;237;40;1591346330497;(545.0,554.0);1591346332265;1768;;(536.0,314.0);
178;0;Successful;CL;left;Downward;;474;80;1591346334609;(546.0,204.0);1591346336860;2251;;(536.0,679.0);
179;0;Successful;CL;left;Downward;;237;80;1591346339846;(542.0,324.0);1591346340418;572;;(540.0,573.0);
180;0;Successful;CL;left;Upward;;474;40;1591346341731;(534.0,674.0);1591346344128;2397;;(543.0,194.0);
181;0;Failed;CL;left;Downward;;474;40;1591346348090;(544.0,204.0);1591346349625;1535;Exceed Path;(562.0,477.0);
182;0;Successful;CL;left;Leftward;;474;54;1591346351948;(305.0,433.0);1591346354486;2538;;(780.0,428.0);
183;0;Successful;CL;left;Downward;;237;40;1591346357227;(532.0,324.0);1591346358748;1521;;(540.0,560.0);
184;0;Successful;CL;left;Rightward;;237;40;1591346360670;(657.0,437.0);1591346362491;1821;;(416.0,440.0);
185;0;Failed;CL;left;Upward;;474;80;1591346364586;(522.0,670.0);1591346364795;209;Exceed Path;(495.0,604.0);
186;0;Successful;CL;left;Rightward;;237;54;1591346366683;(657.0,436.0);1591346367905;1222;;(414.0,461.0);
187;0;Successful;CL;left;Upward;;474;54;1591346372600;(549.0,676.0);1591346376575;3975;;(560.0,200.0);
188;0;Successful;CL;left;Leftward;;237;54;1591346379086;(427.0,430.0);1591346380268;1182;;(668.0,434.0);
189;0;Successful;CL;left;Leftward;;474;40;1591346382919;(305.0,439.0);1591346385916;2997;;(779.0,440.0);
190;0;Successful;CL;left;Leftward;;237;40;1591346388269;(424.0,433.0);1591346389826;1557;;(661.0,432.0);
191;0;Successful;CL;left;Leftward;;237;80;1591346391922;(428.0,430.0);1591346392565;643;;(679.0,431.0);
192;0;Successful;CL;left;Rightward;;474;80;1591346393493;(776.0,455.0);1591346395606;2113;;(295.0,466.0);
193;0;Successful;CL;left;Rightward;;474;40;1591346400456;(773.0,441.0);1591346404129;3673;;(302.0,455.0);
194;0;Successful;CL;left;Leftward;;474;80;1591346405437;(311.0,433.0);1591346407843;2406;;(782.0,442.0);
195;0;Successful;CL;left;Downward;;237;54;1591346410413;(530.0,323.0);1591346411446;1033;;(552.0,566.0);
196;0;Successful;CL;left;Upward;;237;80;1591346412789;(537.0,550.0);1591346413589;800;;(546.0,316.0);
197;0;Successful;CL;left;Rightward;;474;54;1591346415713;(775.0,462.0);1591346417979;2266;;(300.0,456.0);
198;0;Failed;CL;left;Downward;;474;54;1591346420799;(490.0,204.0);1591346420836;37;Exceed Path;(490.0,203.0);
199;0;Successful;CL;left;Rightward;;237;80;1591346442547;(652.0,447.0);1591346443343;796;;(413.0,461.0);
200;0;Failed;CL;left;Upward;;237;54;1591346446536;(540.0,557.0);1591346448488;1952;Exceed Path;(568.0,428.0);
201;0;Successful;CL;left;Upward;;237;40;1591346451740;(537.0,555.0);1591346455674;3934;;(552.0,321.0);
202;0;Successful;CL;left;Downward;;474;80;1591346457940;(549.0,205.0);1591346460000;2060;;(516.0,684.0);
203;0;Successful;CL;left;Downward;;237;80;1591346462759;(507.0,323.0);1591346464095;1336;;(535.0,568.0);
204;0;Failed;CL;left;Downward;;474;40;1591346468813;(502.0,204.0);1591346468853;40;Exceed Path;(502.0,210.0);
205;0;Successful;CL;left;Upward;;474;40;1591346478072;(539.0,676.0);1591346483179;5107;;(529.0,200.0);
206;0;Failed;CL;left;Downward;;237;40;1591346485404;(538.0,325.0);1591346487019;1615;Exceed Path;(562.0,552.0);
207;0;Successful;CL;left;Leftward;;474;54;1591346489355;(304.0,435.0);1591346492734;3379;;(780.0,425.0);
208;0;Successful;CL;left;Rightward;;237;40;1591346494463;(657.0,440.0);1591346496242;1779;;(420.0,454.0);
209;0;Successful;CL;left;Upward;;474;80;1591346498370;(557.0,676.0);1591346501723;3353;;(540.0,198.0);
210;0;Successful;CL;left;Rightward;;237;54;1591346504021;(654.0,444.0);1591346505447;1426;;(419.0,446.0);
211;0;Successful;CL;left;Upward;;474;54;1591346509933;(547.0,676.0);1591346514905;4972;;(535.0,199.0);
212;0;Successful;CL;left;Leftward;;237;54;1591346517384;(423.0,430.0);1591346518900;1516;;(665.0,452.0);
213;0;Successful;CL;left;Leftward;;237;40;1591346521479;(425.0,434.0);1591346523310;1831;;(659.0,439.0);
214;0;Successful;CL;left;Leftward;;474;40;1591346526254;(304.0,434.0);1591346529274;3020;;(783.0,422.0);
215;0;Successful;CL;left;Leftward;;237;80;1591346531906;(427.0,452.0);1591346532417;511;;(675.0,438.0);
216;0;Successful;CL;left;Rightward;;474;80;1591346534550;(775.0,436.0);1591346536076;1526;;(292.0,462.0);
217;0;Successful;CL;left;Rightward;;474;40;1591346540362;(774.0,451.0);1591346543208;2846;;(299.0,454.0);
218;0;Successful;CL;left;Leftward;;474;80;1591346544567;(305.0,440.0);1591346545965;1398;;(783.0,438.0);
219;0;Successful;CL;left;Downward;;237;54;1591346548199;(522.0,326.0);1591346549223;1024;;(552.0,561.0);
220;0;Successful;CL;left;Upward;;237;80;1591346550507;(556.0,557.0);1591346551747;1240;;(519.0,316.0);
221;0;Successful;CL;left;Rightward;;474;54;1591346554126;(775.0,449.0);1591346555925;1799;;(297.0,459.0);
222;0;Failed;CL;left;Downward;;474;54;1591346560077;(543.0,205.0);1591346561188;1111;Exceed Path;(569.0,437.0);
223;0;Successful;CL;left;Rightward;;237;80;1591346565154;(653.0,444.0);1591346566015;861;;(408.0,440.0);
224;0;Successful;CL;left;Upward;;237;54;1591346567872;(541.0,555.0);1591346568974;1102;;(532.0,315.0);
225;0;Failed;CL;left;Upward;;237;40;1591346571347;(562.0,556.0);1591346571388;41;Exceed Path;(562.0,548.0);
226;0;Successful;CL;left;Downward;;474;80;1591346573547;(535.0,208.0);1591346575171;1624;;(523.0,691.0);
227;0;Successful;CL;left;Downward;;237;80;1591346578636;(520.0,330.0);1591346579650;1014;;(532.0,565.0);
228;0;Failed;CL;left;Downward;;474;40;1591346584593;(547.0,204.0);1591346585032;439;Exceed Path;(517.0,231.0);
229;0;Successful;CL;left;Upward;;474;40;1591346590031;(554.0,676.0);1591346594989;4958;;(559.0,201.0);
230;0;Successful;CL;left;Leftward;;474;54;1591346597557;(304.0,429.0);1591346599668;2111;;(781.0,453.0);
231;0;Successful;CL;left;Downward;;237;40;1591346602621;(540.0,325.0);1591346604329;1708;;(547.0,562.0);
232;0;Failed;CL;left;Rightward;;237;40;1591346606499;(657.0,461.0);1591346606554;55;Exceed Path;(655.0,461.0);
233;0;Successful;CL;left;Upward;;474;80;1591346609452;(543.0,675.0);1591346612882;3430;;(513.0,203.0);
234;0;Successful;CL;left;Rightward;;237;54;1591346615670;(656.0,433.0);1591346617429;1759;;(419.0,432.0);
235;0;Successful;CL;left;Upward;;474;54;1591346623207;(535.0,676.0);1591346627237;4030;;(570.0,196.0);
236;0;Successful;CL;left;Leftward;;237;54;1591346629853;(423.0,435.0);1591346631030;1177;;(664.0,441.0);
237;0;Successful;CL;left;Leftward;;237;40;1591346633562;(423.0,434.0);1591346635306;1744;;(661.0,437.0);
238;0;Successful;CL;left;Leftward;;474;40;1591346637584;(305.0,431.0);1591346639985;2401;;(782.0,446.0);
239;0;Successful;CL;left;Rightward;;474;80;1591346641212;(771.0,445.0);1591346642925;1713;;(298.0,448.0);
240;0;Successful;CL;left;Leftward;;237;80;1591346644725;(426.0,430.0);1591346645500;775;;(669.0,425.0);