id,State,TaskType,HandUsed,Direction,SubDirection,Amplitude/Length,Width,StartTime,StartPosition,EndTime,Duration,ErrorType,EndPosition,Remark
1,Successful,TA,right,Vertical,U,192,64,1585669845164,"(829.0,860.0)",1585669845231,67,,"(829.0,860.0)",
2,Successful,TA,right,Vertical,D,192,64,1585669845897,"(790.0,1048.0)",1585669845981,84,,"(790.0,1048.0)",
3,Successful,TA,right,Vertical,U,192,64,1585669846699,"(836.0,861.0)",1585669846749,50,,"(836.0,861.0)",
4,Successful,TA,right,Vertical,D,192,64,1585669847450,"(776.0,1064.0)",1585669847533,83,,"(776.0,1064.0)",
5,Successful,TA,right,Vertical,U,192,64,1585669848254,"(862.0,846.0)",1585669848304,50,,"(862.0,846.0)",
6,Successful,TA,right,Vertical,D,192,64,1585669849005,"(766.0,1065.0)",1585669849088,83,,"(766.0,1065.0)",
7,Successful,TA,right,Vertical,U,192,64,1585669849756,"(848.0,836.0)",1585669849823,67,,"(848.0,836.0)",
8,Successful,TA,right,Vertical,D,192,64,1585669850511,"(772.0,1070.0)",1585669850577,66,,"(772.0,1070.0)",
9,Successful,TA,right,Vertical,U,192,64,1585669851247,"(862.0,870.0)",1585669851313,66,,"(862.0,870.0)",
10,Successful,TA,right,Vertical,D,192,64,1585669851928,"(809.0,1070.0)",1585669851995,67,,"(809.0,1070.0)",
11,Successful,TA,right,Horizontal,R,192,16,1585669860750,"(637.0,1328.0)",1585669860817,67,,"(637.0,1328.0)",
12,Successful,TA,right,Horizontal,L,192,16,1585669861502,"(451.0,1385.0)",1585669861569,67,,"(451.0,1385.0)",
13,Successful,TA,right,Horizontal,R,192,16,1585669862305,"(644.0,1369.0)",1585669862355,50,,"(644.0,1369.0)",
14,Failed,TA,right,Horizontal,L,192,16,1585669863023,"(456.0,1404.0)",1585669863090,67,,"(456.0,1404.0)",
15,Failed,TA,right,Horizontal,R,192,16,1585669863725,"(647.0,1379.0)",1585669863791,66,,"(647.0,1379.0)",
16,Successful,TA,right,Horizontal,L,192,16,1585669864427,"(451.0,1428.0)",1585669864493,66,,"(451.0,1428.0)",
17,Successful,TA,right,Horizontal,R,192,16,1585669865213,"(640.0,1410.0)",1585669865296,83,,"(640.0,1410.0)",
18,Successful,TA,right,Horizontal,L,192,16,1585669866031,"(448.0,1464.0)",1585669866098,67,,"(448.0,1464.0)",
19,Failed,TA,right,Horizontal,R,192,16,1585669866766,"(648.0,1454.0)",1585669866833,67,,"(648.0,1454.0)",
20,Failed,TA,right,Horizontal,L,192,16,1585669867501,"(455.0,1515.0)",1585669867568,67,,"(455.0,1515.0)",
21,Successful,TA,right,Horizontal,L,192,32,1585669874368,"(437.0,1433.0)",1585669874435,67,,"(437.0,1433.0)",
22,Successful,TA,right,Horizontal,R,192,32,1585669875120,"(646.0,1460.0)",1585669875170,50,,"(646.0,1460.0)",
23,Successful,TA,right,Horizontal,L,192,32,1585669875822,"(447.0,1506.0)",1585669875872,50,,"(447.0,1506.0)",
24,Successful,TA,right,Horizontal,R,192,32,1585669876558,"(635.0,1494.0)",1585669876624,66,,"(635.0,1494.0)",
25,Successful,TA,right,Horizontal,L,192,32,1585669877261,"(446.0,1504.0)",1585669877328,67,,"(446.0,1504.0)",
26,Successful,TA,right,Horizontal,R,192,32,1585669878010,"(645.0,1489.0)",1585669878077,67,,"(645.0,1489.0)",
27,Successful,TA,right,Horizontal,L,192,32,1585669878712,"(434.0,1535.0)",1585669878779,67,,"(434.0,1535.0)",
28,Successful,TA,right,Horizontal,R,192,32,1585669879465,"(640.0,1529.0)",1585669879531,66,,"(640.0,1529.0)",
29,Successful,TA,right,Horizontal,L,192,32,1585669880171,"(443.0,1548.0)",1585669880255,84,,"(443.0,1548.0)",
30,Successful,TA,right,Horizontal,R,192,32,1585669880918,"(636.0,1556.0)",1585669880985,67,,"(636.0,1556.0)",
31,Successful,TA,right,Horizontal,L,96,64,1585669890959,"(504.0,1435.0)",1585669891043,84,,"(504.0,1435.0)",
32,Successful,TA,right,Horizontal,R,96,64,1585669891599,"(596.0,1428.0)",1585669891683,84,,"(596.0,1428.0)",
33,Successful,TA,right,Horizontal,L,96,64,1585669892263,"(493.0,1461.0)",1585669892346,83,,"(493.0,1461.0)",
34,Successful,TA,right,Horizontal,R,96,64,1585669892886,"(594.0,1456.0)",1585669892969,83,,"(594.0,1456.0)",
35,Successful,TA,right,Horizontal,L,96,64,1585669893616,"(481.0,1481.0)",1585669893700,84,,"(481.0,1481.0)",
36,Successful,TA,right,Horizontal,R,96,64,1585669894190,"(596.0,1475.0)",1585669894256,66,,"(596.0,1475.0)",
37,Successful,TA,right,Horizontal,L,96,64,1585669894954,"(485.0,1490.0)",1585669895021,67,,"(485.0,1490.0)",
38,Successful,TA,right,Horizontal,R,96,64,1585669895537,"(590.0,1468.0)",1585669895588,51,,"(590.0,1468.0)",
39,Successful,TA,right,Horizontal,L,96,64,1585669896258,"(504.0,1475.0)",1585669896325,67,,"(504.0,1475.0)",
40,Successful,TA,right,Horizontal,R,96,64,1585669896858,"(586.0,1466.0)",1585669896941,83,,"(586.0,1466.0)",
41,Successful,TA,right,Vertical,U,384,32,1585669910358,"(896.0,771.0)",1585669910408,50,,"(896.0,771.0)",
42,Successful,TA,right,Vertical,D,384,32,1585669911127,"(795.0,1154.0)",1585669911211,84,,"(795.0,1154.0)",
43,Successful,TA,right,Vertical,U,384,32,1585669912163,"(903.0,783.0)",1585669912263,100,,"(903.0,783.0)",
44,Successful,TA,right,Vertical,D,384,32,1585669912966,"(789.0,1164.0)",1585669913083,117,,"(789.0,1164.0)",
45,Successful,TA,right,Vertical,U,384,32,1585669913901,"(912.0,761.0)",1585669913968,67,,"(912.0,761.0)",
46,Successful,TA,right,Vertical,D,384,32,1585669914669,"(800.0,1152.0)",1585669914769,100,,"(800.0,1152.0)",
47,Successful,TA,right,Vertical,U,384,32,1585669915505,"(891.0,778.0)",1585669915572,67,,"(891.0,778.0)",
48,Successful,TA,right,Vertical,D,384,32,1585669916273,"(801.0,1162.0)",1585669916357,84,,"(801.0,1162.0)",
49,Successful,TA,right,Vertical,U,384,32,1585669917195,"(877.0,775.0)",1585669917261,66,,"(877.0,775.0)",
50,Successful,TA,right,Vertical,D,384,32,1585669917994,"(790.0,1142.0)",1585669918081,87,,"(790.0,1142.0)",
51,Successful,TA,right,Horizontal,R,384,32,1585669927668,"(717.0,1310.0)",1585669927735,67,,"(717.0,1310.0)",
52,Failed,TA,right,Horizontal,L,384,32,1585669928420,"(330.0,1388.0)",1585669928487,67,,"(330.0,1388.0)",
53,Successful,TA,right,Horizontal,R,384,32,1585669928988,"(741.0,1337.0)",1585669929038,50,,"(741.0,1337.0)",
54,Successful,TA,right,Horizontal,L,384,32,1585669931896,"(354.0,1389.0)",1585669931981,85,,"(354.0,1389.0)",
55,Failed,TA,right,Horizontal,R,384,32,1585669932664,"(711.0,1367.0)",1585669932731,67,,"(711.0,1367.0)",
56,Successful,TA,right,Horizontal,L,384,32,1585669933466,"(337.0,1410.0)",1585669933549,83,,"(337.0,1410.0)",
57,Failed,TA,right,Horizontal,R,384,32,1585669934251,"(705.0,1397.0)",1585669934351,100,,"(705.0,1397.0)",
58,Failed,TA,right,Horizontal,L,384,32,1585669935056,"(326.0,1458.0)",1585669935124,68,,"(326.0,1458.0)",
59,Successful,TA,right,Horizontal,R,384,32,1585669935772,"(732.0,1440.0)",1585669935855,83,,"(732.0,1440.0)",
60,Successful,TA,right,Horizontal,L,384,32,1585669936679,"(339.0,1418.0)",1585669936779,100,,"(339.0,1418.0)",
61,Successful,TA,right,Horizontal,R,384,64,1585669958779,"(742.0,1313.0)",1585669958846,67,,"(742.0,1313.0)",
62,Successful,TA,right,Horizontal,L,384,64,1585669959431,"(357.0,1385.0)",1585669959531,100,,"(357.0,1385.0)",
63,Failed,TA,right,Horizontal,R,384,64,1585669960082,"(694.0,1364.0)",1585669960182,100,,"(694.0,1364.0)",
64,Successful,TA,right,Horizontal,L,384,64,1585669960817,"(344.0,1387.0)",1585669960917,100,,"(344.0,1387.0)",
65,Successful,TA,right,Horizontal,R,384,64,1585669961369,"(743.0,1343.0)",1585669961452,83,,"(743.0,1343.0)",
66,Successful,TA,right,Horizontal,L,384,64,1585669962104,"(354.0,1398.0)",1585669962204,100,,"(354.0,1398.0)",
67,Successful,TA,right,Horizontal,R,384,64,1585669962872,"(741.0,1390.0)",1585669962922,50,,"(741.0,1390.0)",
68,Successful,TA,right,Horizontal,L,384,64,1585669963625,"(350.0,1440.0)",1585669963708,83,,"(350.0,1440.0)",
69,Successful,TA,right,Horizontal,R,384,64,1585669964410,"(739.0,1439.0)",1585669964477,67,,"(739.0,1439.0)",
70,Successful,TA,right,Horizontal,L,384,64,1585669965463,"(354.0,1415.0)",1585669965530,67,,"(354.0,1415.0)",
71,Successful,TA,right,Vertical,U,192,32,1585669972665,"(890.0,880.0)",1585669972731,66,,"(890.0,880.0)",
72,Successful,TA,right,Vertical,D,192,32,1585669973469,"(840.0,1065.0)",1585669973535,66,,"(840.0,1065.0)",
73,Successful,TA,right,Vertical,U,192,32,1585669974238,"(882.0,874.0)",1585669974322,84,,"(882.0,874.0)",
74,Failed,TA,right,Vertical,D,192,32,1585669974973,"(835.0,1074.0)",1585669975023,50,,"(835.0,1074.0)",
75,Successful,TA,right,Vertical,U,192,32,1585669975705,"(892.0,869.0)",1585669975789,84,,"(892.0,869.0)",
76,Successful,TA,right,Vertical,D,192,32,1585669976458,"(832.0,1062.0)",1585669976542,84,,"(832.0,1062.0)",
77,Successful,TA,right,Vertical,U,192,32,1585669977244,"(888.0,875.0)",1585669977311,67,,"(888.0,875.0)",
78,Successful,TA,right,Vertical,D,192,32,1585669978011,"(850.0,1068.0)",1585669978078,67,,"(850.0,1068.0)",
79,Successful,TA,right,Vertical,U,192,32,1585669978780,"(881.0,875.0)",1585669978847,67,,"(881.0,875.0)",
80,Successful,TA,right,Vertical,D,192,32,1585669979567,"(844.0,1066.0)",1585669979650,83,,"(844.0,1066.0)",
81,Failed,TA,right,Horizontal,R,96,16,1585669990610,"(605.0,1308.0)",1585669990659,49,,"(605.0,1308.0)",
82,Successful,TA,right,Horizontal,L,96,16,1585669991261,"(486.0,1362.0)",1585669991328,67,,"(486.0,1362.0)",
83,Successful,TA,right,Horizontal,R,96,16,1585669991879,"(586.0,1341.0)",1585669991962,83,,"(586.0,1341.0)",
84,Successful,TA,right,Horizontal,L,96,16,1585669992581,"(492.0,1385.0)",1585669992665,84,,"(492.0,1385.0)",
85,Successful,TA,right,Horizontal,R,96,16,1585669993300,"(590.0,1378.0)",1585669993367,67,,"(590.0,1378.0)",
86,Failed,TA,right,Horizontal,L,96,16,1585669994101,"(483.0,1403.0)",1585669994185,84,,"(483.0,1403.0)",
87,Failed,TA,right,Horizontal,R,96,16,1585669994824,"(599.0,1388.0)",1585669994890,66,,"(599.0,1388.0)",
88,Failed,TA,right,Horizontal,L,96,16,1585669995522,"(483.0,1416.0)",1585669995622,100,,"(483.0,1416.0)",
89,Successful,TA,right,Horizontal,R,96,16,1585669996207,"(586.0,1406.0)",1585669996307,100,,"(586.0,1406.0)",
90,Failed,TA,right,Horizontal,L,96,16,1585669997060,"(481.0,1440.0)",1585669997160,100,,"(481.0,1440.0)",
91,Successful,TA,right,Horizontal,L,96,32,1585670001369,"(486.0,1462.0)",1585670001435,66,,"(486.0,1462.0)",
92,Successful,TA,right,Horizontal,R,96,32,1585670002121,"(589.0,1432.0)",1585670002188,67,,"(589.0,1432.0)",
93,Failed,TA,right,Horizontal,L,96,32,1585670002878,"(473.0,1442.0)",1585670002944,66,,"(473.0,1442.0)",
94,Successful,TA,right,Horizontal,R,96,32,1585670003608,"(595.0,1425.0)",1585670003691,83,,"(595.0,1425.0)",
95,Successful,TA,right,Horizontal,L,96,32,1585670004427,"(485.0,1416.0)",1585670004528,101,,"(485.0,1416.0)",
96,Successful,TA,right,Horizontal,R,96,32,1585670005246,"(594.0,1436.0)",1585670005279,33,,"(594.0,1436.0)",
97,Successful,TA,right,Horizontal,L,96,32,1585670005983,"(488.0,1451.0)",1585670006050,67,,"(488.0,1451.0)",
98,Successful,TA,right,Horizontal,R,96,32,1585670006753,"(587.0,1441.0)",1585670006820,67,,"(587.0,1441.0)",
99,Successful,TA,right,Horizontal,L,96,32,1585670007574,"(489.0,1441.0)",1585670007640,66,,"(489.0,1441.0)",
100,Successful,TA,right,Horizontal,R,96,32,1585670008354,"(589.0,1431.0)",1585670008471,117,,"(589.0,1431.0)",
101,Successful,TA,right,Vertical,D,384,64,1585670018881,"(751.0,1152.0)",1585670018964,83,,"(751.0,1152.0)",
102,Successful,TA,right,Vertical,U,384,64,1585670019616,"(915.0,755.0)",1585670019716,100,,"(915.0,755.0)",
103,Successful,TA,right,Vertical,D,384,64,1585670020302,"(769.0,1181.0)",1585670020402,100,,"(769.0,1181.0)",
104,Successful,TA,right,Vertical,U,384,64,1585670021001,"(882.0,770.0)",1585670021086,85,,"(882.0,770.0)",
105,Successful,TA,right,Vertical,D,384,64,1585670021688,"(758.0,1163.0)",1585670021788,100,,"(758.0,1163.0)",
106,Successful,TA,right,Vertical,U,384,64,1585670022461,"(881.0,771.0)",1585670022544,83,,"(881.0,771.0)",
107,Successful,TA,right,Vertical,D,384,64,1585670023078,"(774.0,1156.0)",1585670023177,99,,"(774.0,1156.0)",
108,Successful,TA,right,Vertical,U,384,64,1585670023863,"(879.0,770.0)",1585670023946,83,,"(879.0,770.0)",
109,Successful,TA,right,Vertical,D,384,64,1585670024544,"(749.0,1153.0)",1585670024628,84,,"(749.0,1153.0)",
110,Successful,TA,right,Vertical,U,384,64,1585670025430,"(870.0,774.0)",1585670025480,50,,"(870.0,774.0)",
111,Successful,TA,right,Vertical,D,96,32,1585670031428,"(808.0,1011.0)",1585670031495,67,,"(808.0,1011.0)",
112,Failed,TA,right,Vertical,U,96,32,1585670032498,"(841.0,929.0)",1585670032598,100,,"(841.0,929.0)",
113,Successful,TA,right,Vertical,D,96,32,1585670033249,"(814.0,1007.0)",1585670033366,117,,"(814.0,1007.0)",
114,Successful,TA,right,Vertical,U,96,32,1585670034101,"(847.0,915.0)",1585670034168,67,,"(847.0,915.0)",
115,Successful,TA,right,Vertical,D,96,32,1585670034870,"(823.0,1002.0)",1585670034937,67,,"(823.0,1002.0)",
116,Successful,TA,right,Vertical,U,96,32,1585670035739,"(851.0,917.0)",1585670035822,83,,"(851.0,917.0)",
117,Successful,TA,right,Vertical,D,96,32,1585670036542,"(818.0,1019.0)",1585670036592,50,,"(818.0,1019.0)",
118,Successful,TA,right,Vertical,U,96,32,1585670037377,"(847.0,915.0)",1585670037427,50,,"(847.0,915.0)",
119,Successful,TA,right,Vertical,D,96,32,1585670038114,"(816.0,1004.0)",1585670038231,117,,"(816.0,1004.0)",
120,Successful,TA,right,Vertical,U,96,32,1585670039249,"(847.0,910.0)",1585670039332,83,,"(847.0,910.0)",
121,Failed,TA,right,Horizontal,L,384,16,1585670055572,"(332.0,1360.0)",1585670055672,100,,"(332.0,1360.0)",
122,Successful,TA,right,Horizontal,R,384,16,1585670056474,"(733.0,1313.0)",1585670056575,101,,"(733.0,1313.0)",
123,Successful,TA,right,Horizontal,L,384,16,1585670057376,"(342.0,1377.0)",1585670057493,117,,"(342.0,1377.0)",
124,Successful,TA,right,Horizontal,R,384,16,1585670058395,"(733.0,1369.0)",1585670058495,100,,"(733.0,1369.0)",
125,Successful,TA,right,Horizontal,L,384,16,1585670059465,"(341.0,1437.0)",1585670059565,100,,"(341.0,1437.0)",
126,Failed,TA,right,Horizontal,R,384,16,1585670060435,"(715.0,1449.0)",1585670060535,100,,"(715.0,1449.0)",
127,Successful,TA,right,Horizontal,L,384,16,1585670061422,"(348.0,1484.0)",1585670061506,84,,"(348.0,1484.0)",
128,Successful,TA,right,Horizontal,R,384,16,1585670062406,"(731.0,1497.0)",1585670062506,100,,"(731.0,1497.0)",
129,Successful,TA,right,Horizontal,L,384,16,1585670063409,"(345.0,1427.0)",1585670063492,83,,"(345.0,1427.0)",
130,Failed,TA,right,Horizontal,R,384,16,1585670064294,"(743.0,1419.0)",1585670064410,116,,"(743.0,1419.0)",
131,Successful,TA,right,Vertical,U,192,16,1585670072314,"(834.0,863.0)",1585670072381,67,,"(834.0,863.0)",
132,Successful,TA,right,Vertical,D,192,16,1585670073102,"(774.0,1060.0)",1585670073186,84,,"(774.0,1060.0)",
133,Failed,TA,right,Vertical,U,192,16,1585670076942,"(820.0,879.0)",1585670076992,50,,"(820.0,879.0)",
134,Successful,TA,right,Vertical,D,192,16,1585670077577,"(790.0,1049.0)",1585670077678,101,,"(790.0,1049.0)",
135,Successful,TA,right,Vertical,U,192,16,1585670078446,"(838.0,869.0)",1585670078513,67,,"(838.0,869.0)",
136,Successful,TA,right,Vertical,D,192,16,1585670079283,"(787.0,1054.0)",1585670079366,83,,"(787.0,1054.0)",
137,Successful,TA,right,Vertical,U,192,16,1585670080217,"(845.0,857.0)",1585670080300,83,,"(845.0,857.0)",
138,Successful,TA,right,Vertical,D,192,16,1585670081019,"(797.0,1056.0)",1585670081135,116,,"(797.0,1056.0)",
139,Failed,TA,right,Vertical,U,192,16,1585670082006,"(859.0,874.0)",1585670082089,83,,"(859.0,874.0)",
140,Successful,TA,right,Vertical,D,192,16,1585670082792,"(805.0,1056.0)",1585670082892,100,,"(805.0,1056.0)",
141,Failed,TA,right,Vertical,D,96,16,1585670087568,"(825.0,994.0)",1585670087653,85,,"(825.0,994.0)",
142,Successful,TA,right,Vertical,U,96,16,1585670088388,"(888.0,917.0)",1585670088455,67,,"(888.0,917.0)",
143,Successful,TA,right,Vertical,D,96,16,1585670089222,"(832.0,1008.0)",1585670089289,67,,"(832.0,1008.0)",
144,Successful,TA,right,Vertical,U,96,16,1585670090075,"(877.0,915.0)",1585670090160,85,,"(877.0,915.0)",
145,Successful,TA,right,Vertical,D,96,16,1585670090896,"(847.0,1011.0)",1585670091012,116,,"(847.0,1011.0)",
146,Failed,TA,right,Vertical,U,96,16,1585670091796,"(862.0,924.0)",1585670091862,66,,"(862.0,924.0)",
147,Successful,TA,right,Vertical,D,96,16,1585670092582,"(832.0,1011.0)",1585670092682,100,,"(832.0,1011.0)",
148,Successful,TA,right,Vertical,U,96,16,1585670093700,"(850.0,916.0)",1585670093784,84,,"(850.0,916.0)",
149,Successful,TA,right,Vertical,D,96,16,1585670094537,"(823.0,1008.0)",1585670094604,67,,"(823.0,1008.0)",
150,Successful,TA,right,Vertical,U,96,16,1585670095405,"(879.0,914.0)",1585670095521,116,,"(879.0,914.0)",
151,Successful,TA,right,Horizontal,L,192,64,1585670104745,"(444.0,1198.0)",1585670104828,83,,"(444.0,1198.0)",
152,Successful,TA,right,Horizontal,R,192,64,1585670105247,"(621.0,1170.0)",1585670105331,84,,"(621.0,1170.0)",
153,Successful,TA,right,Horizontal,L,192,64,1585670105831,"(438.0,1210.0)",1585670105932,101,,"(438.0,1210.0)",
154,Successful,TA,right,Horizontal,R,192,64,1585670106400,"(624.0,1168.0)",1585670106450,50,,"(624.0,1168.0)",
155,Successful,TA,right,Horizontal,L,192,64,1585670107101,"(448.0,1220.0)",1585670107201,100,,"(448.0,1220.0)",
156,Successful,TA,right,Horizontal,R,192,64,1585670107655,"(648.0,1192.0)",1585670107755,100,,"(648.0,1192.0)",
157,Successful,TA,right,Horizontal,L,192,64,1585670108354,"(442.0,1252.0)",1585670108404,50,,"(442.0,1252.0)",
158,Successful,TA,right,Horizontal,R,192,64,1585670109059,"(646.0,1208.0)",1585670109159,100,,"(646.0,1208.0)",
159,Successful,TA,right,Horizontal,L,192,64,1585670109860,"(428.0,1267.0)",1585670111361,1501,,"(451.0,1316.0)",
160,Successful,TA,right,Horizontal,R,192,64,1585670112117,"(618.0,1298.0)",1585670112201,84,,"(618.0,1298.0)",
161,Successful,TA,right,Vertical,U,96,64,1585670122891,"(789.0,919.0)",1585670122958,67,,"(789.0,919.0)",
162,Successful,TA,right,Vertical,D,96,64,1585670123626,"(755.0,992.0)",1585670123694,68,,"(755.0,992.0)",
163,Successful,TA,right,Vertical,U,96,64,1585670124394,"(784.0,925.0)",1585670124461,67,,"(784.0,925.0)",
164,Successful,TA,right,Vertical,D,96,64,1585670125179,"(729.0,1005.0)",1585670125297,118,,"(729.0,1005.0)",
165,Successful,TA,right,Vertical,U,96,64,1585670126100,"(785.0,917.0)",1585670126199,99,,"(785.0,917.0)",
166,Successful,TA,right,Vertical,D,96,64,1585670126900,"(763.0,1017.0)",1585670127000,100,,"(763.0,1017.0)",
167,Successful,TA,right,Vertical,U,96,64,1585670127786,"(793.0,915.0)",1585670127870,84,,"(793.0,915.0)",
168,Successful,TA,right,Vertical,D,96,64,1585670128639,"(774.0,1004.0)",1585670128723,84,,"(774.0,1004.0)",
169,Successful,TA,right,Vertical,U,96,64,1585670129507,"(803.0,914.0)",1585670129590,83,,"(803.0,914.0)",
170,Successful,TA,right,Vertical,D,96,64,1585670130263,"(779.0,1014.0)",1585670130330,67,,"(779.0,1014.0)",
171,Successful,TA,right,Vertical,U,384,16,1585670136641,"(847.0,775.0)",1585670136742,101,,"(847.0,775.0)",
172,Successful,TA,right,Vertical,D,384,16,1585670137610,"(758.0,1148.0)",1585670137694,84,,"(758.0,1148.0)",
173,Successful,TA,right,Vertical,U,384,16,1585670138646,"(800.0,769.0)",1585670138713,67,,"(800.0,769.0)",
174,Successful,TA,right,Vertical,D,384,16,1585670139615,"(743.0,1156.0)",1585670139732,117,,"(743.0,1156.0)",
175,Failed,TA,right,Vertical,U,384,16,1585670140652,"(811.0,753.0)",1585670140735,83,,"(811.0,753.0)",
176,Successful,TA,right,Vertical,D,384,16,1585670141588,"(761.0,1148.0)",1585670141688,100,,"(761.0,1148.0)",
177,Failed,TA,right,Vertical,U,384,16,1585670142640,"(806.0,755.0)",1585670142707,67,,"(806.0,755.0)",
178,Failed,TA,right,Vertical,D,384,16,1585670143660,"(764.0,1139.0)",1585670143743,83,,"(764.0,1139.0)",
179,Failed,TA,right,Vertical,U,384,16,1585670144662,"(811.0,752.0)",1585670144762,100,,"(811.0,752.0)",
180,Successful,TA,right,Vertical,D,384,16,1585670145615,"(770.0,1144.0)",1585670145699,84,,"(770.0,1144.0)",
